/*
WARNING: Do NOT edit the input and output ports in this file in a text
editor if you plan to continue editing the block that represents it in
the Block Editor! File corruption is VERY likely to occur.
*/
/*
Copyright (C) 1991-2015 Altera Corporation. All rights reserved.
Your use of Altera Corporation's design tools, logic functions 
and other software and tools, and its AMPP partner logic 
functions, and any output files from any of the foregoing 
(including device programming or simulation files), and any 
associated documentation or information are expressly subject 
to the terms and conditions of the Altera Program License 
Subscription Agreement, the Altera Quartus II License Agreement,
the Altera MegaCore Function License Agreement, or other 
applicable license agreement, including, without limitation, 
that your use is for the sole purpose of programming logic 
devices manufactured by Altera and sold by Altera or its 
authorized distributors.  Please refer to the applicable 
agreement for further details.
*/
(header "graphic" (version "1.4"))
(pin
	(input)
	(rect -88 80 80 96)
	(text "INPUT" (rect 125 0 153 10)(font "Arial" (font_size 6)))
	(text "CLOCK_50" (rect 5 0 60 12)(font "Arial" ))
	(pt 168 8)
	(drawing
		(line (pt 84 12)(pt 109 12))
		(line (pt 84 4)(pt 109 4))
		(line (pt 113 8)(pt 168 8))
		(line (pt 84 12)(pt 84 4))
		(line (pt 109 4)(pt 113 8))
		(line (pt 109 12)(pt 113 8))
	)
	(text "VCC" (rect 128 7 148 17)(font "Arial" (font_size 6)))
	(annotation_block (location)(rect -160 96 -88 112))
)
(pin
	(input)
	(rect -88 112 80 128)
	(text "INPUT" (rect 125 0 153 10)(font "Arial" (font_size 6)))
	(text "SW[9..0]" (rect 5 0 48 12)(font "Arial" ))
	(pt 168 8)
	(drawing
		(line (pt 84 12)(pt 109 12))
		(line (pt 84 4)(pt 109 4))
		(line (pt 113 8)(pt 168 8))
		(line (pt 84 12)(pt 84 4))
		(line (pt 109 4)(pt 113 8))
		(line (pt 109 12)(pt 113 8))
	)
	(text "VCC" (rect 128 7 148 17)(font "Arial" (font_size 6)))
	(annotation_block (location)(rect -160 128 -88 144))
)
(pin
	(input)
	(rect -88 96 80 112)
	(text "INPUT" (rect 125 0 153 10)(font "Arial" (font_size 6)))
	(text "KEY[0]" (rect 5 0 40 12)(font "Arial" ))
	(pt 168 8)
	(drawing
		(line (pt 84 12)(pt 109 12))
		(line (pt 84 4)(pt 109 4))
		(line (pt 113 8)(pt 168 8))
		(line (pt 84 12)(pt 84 4))
		(line (pt 109 4)(pt 113 8))
		(line (pt 109 12)(pt 113 8))
	)
	(text "VCC" (rect 128 7 148 17)(font "Arial" (font_size 6)))
	(annotation_block (location)(rect -160 112 -88 128))
)
(pin
	(input)
	(rect -88 176 80 192)
	(text "INPUT" (rect 125 0 153 10)(font "Arial" (font_size 6)))
	(text "KEY[3..1]" (rect 5 0 53 12)(font "Arial" ))
	(pt 168 8)
	(drawing
		(line (pt 84 12)(pt 109 12))
		(line (pt 84 4)(pt 109 4))
		(line (pt 113 8)(pt 168 8))
		(line (pt 84 12)(pt 84 4))
		(line (pt 109 4)(pt 113 8))
		(line (pt 109 12)(pt 113 8))
	)
	(text "VCC" (rect 128 7 148 17)(font "Arial" (font_size 6)))
	(annotation_block (location)(rect -160 192 -88 208))
)
(pin
	(output)
	(rect 1264 80 1440 96)
	(text "OUTPUT" (rect 1 0 39 10)(font "Arial" (font_size 6)))
	(text "LEDR[9..0]" (rect 90 0 145 12)(font "Arial" ))
	(pt 0 8)
	(drawing
		(line (pt 0 8)(pt 52 8))
		(line (pt 52 4)(pt 78 4))
		(line (pt 52 12)(pt 78 12))
		(line (pt 52 12)(pt 52 4))
		(line (pt 78 4)(pt 82 8))
		(line (pt 82 8)(pt 78 12))
		(line (pt 78 12)(pt 82 8))
	)
	(annotation_block (location)(rect 1440 96 1504 112))
)
(pin
	(output)
	(rect 1264 96 1472 112)
	(text "OUTPUT" (rect 1 0 39 10)(font "Arial" (font_size 6)))
	(text "DRAM_ADDR[12..0]" (rect 90 0 191 12)(font "Arial" ))
	(pt 0 8)
	(drawing
		(line (pt 0 8)(pt 52 8))
		(line (pt 52 4)(pt 78 4))
		(line (pt 52 12)(pt 78 12))
		(line (pt 52 12)(pt 52 4))
		(line (pt 78 4)(pt 82 8))
		(line (pt 82 8)(pt 78 12))
		(line (pt 78 12)(pt 82 8))
	)
	(annotation_block (location)(rect 1472 112 1544 128))
)
(pin
	(output)
	(rect 1264 112 1440 128)
	(text "OUTPUT" (rect 1 0 39 10)(font "Arial" (font_size 6)))
	(text "DRAM_CLK" (rect 90 0 149 12)(font "Arial" ))
	(pt 0 8)
	(drawing
		(line (pt 0 8)(pt 52 8))
		(line (pt 52 4)(pt 78 4))
		(line (pt 52 12)(pt 78 12))
		(line (pt 52 12)(pt 52 4))
		(line (pt 78 4)(pt 82 8))
		(line (pt 82 8)(pt 78 12))
		(line (pt 78 12)(pt 82 8))
	)
	(annotation_block (location)(rect 1440 128 1512 144))
)
(pin
	(output)
	(rect 1264 128 1440 144)
	(text "OUTPUT" (rect 1 0 39 10)(font "Arial" (font_size 6)))
	(text "DRAM_CKE" (rect 90 0 150 12)(font "Arial" ))
	(pt 0 8)
	(drawing
		(line (pt 0 8)(pt 52 8))
		(line (pt 52 4)(pt 78 4))
		(line (pt 52 12)(pt 78 12))
		(line (pt 52 12)(pt 52 4))
		(line (pt 78 4)(pt 82 8))
		(line (pt 82 8)(pt 78 12))
		(line (pt 78 12)(pt 82 8))
	)
	(annotation_block (location)(rect 1440 144 1512 160))
)
(pin
	(output)
	(rect 1264 144 1448 160)
	(text "OUTPUT" (rect 1 0 39 10)(font "Arial" (font_size 6)))
	(text "DRAM_BA[1..0]" (rect 90 0 167 12)(font "Arial" ))
	(pt 0 8)
	(drawing
		(line (pt 0 8)(pt 52 8))
		(line (pt 52 4)(pt 78 4))
		(line (pt 52 12)(pt 78 12))
		(line (pt 52 12)(pt 52 4))
		(line (pt 78 4)(pt 82 8))
		(line (pt 82 8)(pt 78 12))
		(line (pt 78 12)(pt 82 8))
	)
	(annotation_block (location)(rect 1448 160 1520 176))
)
(pin
	(output)
	(rect 1264 160 1440 176)
	(text "OUTPUT" (rect 1 0 39 10)(font "Arial" (font_size 6)))
	(text "DRAM_CS_N" (rect 90 0 157 12)(font "Arial" ))
	(pt 0 8)
	(drawing
		(line (pt 0 8)(pt 52 8))
		(line (pt 52 4)(pt 78 4))
		(line (pt 52 12)(pt 78 12))
		(line (pt 52 12)(pt 52 4))
		(line (pt 78 4)(pt 82 8))
		(line (pt 82 8)(pt 78 12))
		(line (pt 78 12)(pt 82 8))
	)
	(annotation_block (location)(rect 1440 176 1512 192))
)
(pin
	(output)
	(rect 1264 176 1443 192)
	(text "OUTPUT" (rect 1 0 39 10)(font "Arial" (font_size 6)))
	(text "DRAM_CAS_N" (rect 90 0 164 12)(font "Arial" ))
	(pt 0 8)
	(drawing
		(line (pt 0 8)(pt 52 8))
		(line (pt 52 4)(pt 78 4))
		(line (pt 52 12)(pt 78 12))
		(line (pt 52 12)(pt 52 4))
		(line (pt 78 4)(pt 82 8))
		(line (pt 82 8)(pt 78 12))
		(line (pt 78 12)(pt 82 8))
	)
	(annotation_block (location)(rect 1443 192 1515 208))
)
(pin
	(output)
	(rect 1264 192 1443 208)
	(text "OUTPUT" (rect 1 0 39 10)(font "Arial" (font_size 6)))
	(text "DRAM_RAS_N" (rect 90 0 164 12)(font "Arial" ))
	(pt 0 8)
	(drawing
		(line (pt 0 8)(pt 52 8))
		(line (pt 52 4)(pt 78 4))
		(line (pt 52 12)(pt 78 12))
		(line (pt 52 12)(pt 52 4))
		(line (pt 78 4)(pt 82 8))
		(line (pt 82 8)(pt 78 12))
		(line (pt 78 12)(pt 82 8))
	)
	(annotation_block (location)(rect 1443 208 1515 224))
)
(pin
	(output)
	(rect 1264 208 1440 224)
	(text "OUTPUT" (rect 1 0 39 10)(font "Arial" (font_size 6)))
	(text "DRAM_WE_N" (rect 90 0 159 12)(font "Arial" ))
	(pt 0 8)
	(drawing
		(line (pt 0 8)(pt 52 8))
		(line (pt 52 4)(pt 78 4))
		(line (pt 52 12)(pt 78 12))
		(line (pt 52 12)(pt 52 4))
		(line (pt 78 4)(pt 82 8))
		(line (pt 82 8)(pt 78 12))
		(line (pt 78 12)(pt 82 8))
	)
	(annotation_block (location)(rect 1440 224 1512 240))
)
(pin
	(output)
	(rect 1264 240 1440 256)
	(text "OUTPUT" (rect 1 0 39 10)(font "Arial" (font_size 6)))
	(text "DRAM_UDQM" (rect 90 0 160 12)(font "Arial" ))
	(pt 0 8)
	(drawing
		(line (pt 0 8)(pt 52 8))
		(line (pt 52 4)(pt 78 4))
		(line (pt 52 12)(pt 78 12))
		(line (pt 52 12)(pt 52 4))
		(line (pt 78 4)(pt 82 8))
		(line (pt 82 8)(pt 78 12))
		(line (pt 78 12)(pt 82 8))
	)
	(annotation_block (location)(rect 1440 256 1512 272))
)
(pin
	(output)
	(rect 1264 256 1440 272)
	(text "OUTPUT" (rect 1 0 39 10)(font "Arial" (font_size 6)))
	(text "DRAM_LDQM" (rect 90 0 158 12)(font "Arial" ))
	(pt 0 8)
	(drawing
		(line (pt 0 8)(pt 52 8))
		(line (pt 52 4)(pt 78 4))
		(line (pt 52 12)(pt 78 12))
		(line (pt 52 12)(pt 52 4))
		(line (pt 78 4)(pt 82 8))
		(line (pt 82 8)(pt 78 12))
		(line (pt 78 12)(pt 82 8))
	)
	(annotation_block (location)(rect 1440 272 1512 288))
)
(pin
	(output)
	(rect 1288 592 1464 608)
	(text "OUTPUT" (rect 1 0 39 10)(font "Arial" (font_size 6)))
	(text "HEX1[6..0]" (rect 90 0 143 12)(font "Arial" ))
	(pt 0 8)
	(drawing
		(line (pt 0 8)(pt 52 8))
		(line (pt 52 4)(pt 78 4))
		(line (pt 52 12)(pt 78 12))
		(line (pt 52 12)(pt 52 4))
		(line (pt 78 4)(pt 82 8))
		(line (pt 82 8)(pt 78 12))
		(line (pt 78 12)(pt 82 8))
	)
	(annotation_block (location)(rect 1464 608 1536 624))
)
(pin
	(output)
	(rect 1288 608 1464 624)
	(text "OUTPUT" (rect 1 0 39 10)(font "Arial" (font_size 6)))
	(text "HEX0[6..0]" (rect 90 0 143 12)(font "Arial" ))
	(pt 0 8)
	(drawing
		(line (pt 0 8)(pt 52 8))
		(line (pt 52 4)(pt 78 4))
		(line (pt 52 12)(pt 78 12))
		(line (pt 52 12)(pt 52 4))
		(line (pt 78 4)(pt 82 8))
		(line (pt 82 8)(pt 78 12))
		(line (pt 78 12)(pt 82 8))
	)
	(annotation_block (location)(rect 1464 624 1536 640))
)
(pin
	(output)
	(rect 1288 624 1464 640)
	(text "OUTPUT" (rect 1 0 39 10)(font "Arial" (font_size 6)))
	(text "HEX3[6..0]" (rect 90 0 143 12)(font "Arial" ))
	(pt 0 8)
	(drawing
		(line (pt 0 8)(pt 52 8))
		(line (pt 52 4)(pt 78 4))
		(line (pt 52 12)(pt 78 12))
		(line (pt 52 12)(pt 52 4))
		(line (pt 78 4)(pt 82 8))
		(line (pt 82 8)(pt 78 12))
		(line (pt 78 12)(pt 82 8))
	)
	(annotation_block (location)(rect 1464 640 1536 656))
)
(pin
	(output)
	(rect 1288 640 1464 656)
	(text "OUTPUT" (rect 1 0 39 10)(font "Arial" (font_size 6)))
	(text "HEX2[6..0]" (rect 90 0 143 12)(font "Arial" ))
	(pt 0 8)
	(drawing
		(line (pt 0 8)(pt 52 8))
		(line (pt 52 4)(pt 78 4))
		(line (pt 52 12)(pt 78 12))
		(line (pt 52 12)(pt 52 4))
		(line (pt 78 4)(pt 82 8))
		(line (pt 82 8)(pt 78 12))
		(line (pt 78 12)(pt 82 8))
	)
	(annotation_block (location)(rect 1464 656 1536 672))
)
(pin
	(output)
	(rect 1288 656 1464 672)
	(text "OUTPUT" (rect 1 0 39 10)(font "Arial" (font_size 6)))
	(text "HEX5[6..0]" (rect 90 0 143 12)(font "Arial" ))
	(pt 0 8)
	(drawing
		(line (pt 0 8)(pt 52 8))
		(line (pt 52 4)(pt 78 4))
		(line (pt 52 12)(pt 78 12))
		(line (pt 52 12)(pt 52 4))
		(line (pt 78 4)(pt 82 8))
		(line (pt 82 8)(pt 78 12))
		(line (pt 78 12)(pt 82 8))
	)
	(annotation_block (location)(rect 1464 672 1528 688))
)
(pin
	(output)
	(rect 1288 672 1464 688)
	(text "OUTPUT" (rect 1 0 39 10)(font "Arial" (font_size 6)))
	(text "HEX4[6..0]" (rect 90 0 143 12)(font "Arial" ))
	(pt 0 8)
	(drawing
		(line (pt 0 8)(pt 52 8))
		(line (pt 52 4)(pt 78 4))
		(line (pt 52 12)(pt 78 12))
		(line (pt 52 12)(pt 52 4))
		(line (pt 78 4)(pt 82 8))
		(line (pt 82 8)(pt 78 12))
		(line (pt 78 12)(pt 82 8))
	)
	(annotation_block (location)(rect 1464 688 1536 704))
)
(pin
	(output)
	(rect 1448 -392 1624 -376)
	(text "OUTPUT" (rect 1 0 39 10)(font "Arial" (font_size 6)))
	(text "VGA_B[7..0]" (rect 90 0 151 12)(font "Arial" ))
	(pt 0 8)
	(drawing
		(line (pt 0 8)(pt 52 8))
		(line (pt 52 4)(pt 78 4))
		(line (pt 52 12)(pt 78 12))
		(line (pt 52 12)(pt 52 4))
		(line (pt 78 4)(pt 82 8))
		(line (pt 82 8)(pt 78 12))
		(line (pt 78 12)(pt 82 8))
	)
	(annotation_block (location)(rect 1624 -376 1688 -360))
)
(pin
	(output)
	(rect 1448 -408 1624 -392)
	(text "OUTPUT" (rect 1 0 39 10)(font "Arial" (font_size 6)))
	(text "VGA_G[7..0]" (rect 90 0 152 12)(font "Arial" ))
	(pt 0 8)
	(drawing
		(line (pt 0 8)(pt 52 8))
		(line (pt 52 4)(pt 78 4))
		(line (pt 52 12)(pt 78 12))
		(line (pt 52 12)(pt 52 4))
		(line (pt 78 4)(pt 82 8))
		(line (pt 82 8)(pt 78 12))
		(line (pt 78 12)(pt 82 8))
	)
	(annotation_block (location)(rect 1624 -392 1680 -376))
)
(pin
	(output)
	(rect 1448 -424 1624 -408)
	(text "OUTPUT" (rect 1 0 39 10)(font "Arial" (font_size 6)))
	(text "VGA_R[7..0]" (rect 90 0 152 12)(font "Arial" ))
	(pt 0 8)
	(drawing
		(line (pt 0 8)(pt 52 8))
		(line (pt 52 4)(pt 78 4))
		(line (pt 52 12)(pt 78 12))
		(line (pt 52 12)(pt 52 4))
		(line (pt 78 4)(pt 82 8))
		(line (pt 82 8)(pt 78 12))
		(line (pt 78 12)(pt 82 8))
	)
	(annotation_block (location)(rect 1624 -408 1688 -392))
)
(pin
	(output)
	(rect 1448 -472 1624 -456)
	(text "OUTPUT" (rect 1 0 39 10)(font "Arial" (font_size 6)))
	(text "VGA_HS" (rect 90 0 133 12)(font "Arial" ))
	(pt 0 8)
	(drawing
		(line (pt 0 8)(pt 52 8))
		(line (pt 52 4)(pt 78 4))
		(line (pt 52 12)(pt 78 12))
		(line (pt 52 12)(pt 52 4))
		(line (pt 78 4)(pt 82 8))
		(line (pt 82 8)(pt 78 12))
		(line (pt 78 12)(pt 82 8))
	)
	(annotation_block (location)(rect 1624 -456 1688 -440))
)
(pin
	(output)
	(rect 1448 -456 1624 -440)
	(text "OUTPUT" (rect 1 0 39 10)(font "Arial" (font_size 6)))
	(text "VGA_VS" (rect 90 0 132 12)(font "Arial" ))
	(pt 0 8)
	(drawing
		(line (pt 0 8)(pt 52 8))
		(line (pt 52 4)(pt 78 4))
		(line (pt 52 12)(pt 78 12))
		(line (pt 52 12)(pt 52 4))
		(line (pt 78 4)(pt 82 8))
		(line (pt 82 8)(pt 78 12))
		(line (pt 78 12)(pt 82 8))
	)
	(annotation_block (location)(rect 1624 -440 1688 -424))
)
(pin
	(output)
	(rect 1448 -440 1636 -424)
	(text "OUTPUT" (rect 1 0 39 10)(font "Arial" (font_size 6)))
	(text "VGA_BLANK_N" (rect 90 0 167 12)(font "Arial" ))
	(pt 0 8)
	(drawing
		(line (pt 0 8)(pt 52 8))
		(line (pt 52 4)(pt 78 4))
		(line (pt 52 12)(pt 78 12))
		(line (pt 52 12)(pt 52 4))
		(line (pt 78 4)(pt 82 8))
		(line (pt 82 8)(pt 78 12))
		(line (pt 78 12)(pt 82 8))
	)
	(annotation_block (location)(rect 1636 -424 1700 -408))
)
(pin
	(output)
	(rect 1448 -504 1628 -488)
	(text "OUTPUT" (rect 1 0 39 10)(font "Arial" (font_size 6)))
	(text "VGA_SYNC_N" (rect 90 0 164 12)(font "Arial" ))
	(pt 0 8)
	(drawing
		(line (pt 0 8)(pt 52 8))
		(line (pt 52 4)(pt 78 4))
		(line (pt 52 12)(pt 78 12))
		(line (pt 52 12)(pt 52 4))
		(line (pt 78 4)(pt 82 8))
		(line (pt 82 8)(pt 78 12))
		(line (pt 78 12)(pt 82 8))
	)
	(annotation_block (location)(rect 1624 -488 1688 -464))
)
(pin
	(output)
	(rect 1448 -488 1624 -472)
	(text "OUTPUT" (rect 1 0 39 10)(font "Arial" (font_size 6)))
	(text "VGA_CLK" (rect 90 0 139 12)(font "Arial" ))
	(pt 0 8)
	(drawing
		(line (pt 0 8)(pt 52 8))
		(line (pt 52 4)(pt 78 4))
		(line (pt 52 12)(pt 78 12))
		(line (pt 52 12)(pt 52 4))
		(line (pt 78 4)(pt 82 8))
		(line (pt 82 8)(pt 78 12))
		(line (pt 78 12)(pt 82 8))
	)
	(annotation_block (location)(rect 1624 -472 1688 -448))
)
(pin
	(bidir)
	(rect 1264 224 1455 240)
	(text "BIDIR" (rect 1 0 25 10)(font "Arial" (font_size 6)))
	(text "DRAM_DQ[15..0]" (rect 90 0 176 12)(font "Arial" ))
	(pt 0 8)
	(drawing
		(line (pt 56 4)(pt 78 4))
		(line (pt 0 8)(pt 52 8))
		(line (pt 56 12)(pt 78 12))
		(line (pt 78 4)(pt 82 8))
		(line (pt 78 12)(pt 82 8))
		(line (pt 56 4)(pt 52 8))
		(line (pt 52 8)(pt 56 12))
	)
	(text "VCC" (rect 4 7 24 17)(font "Arial" (font_size 6)))
	(annotation_block (location)(rect 1455 240 1519 256))
)
(pin
	(bidir)
	(rect 1568 1080 1744 1096)
	(text "BIDIR" (rect 1 0 25 10)(font "Arial" (font_size 6)))
	(text "GPIO_0[35..0]" (rect 90 0 160 12)(font "Arial" ))
	(pt 0 8)
	(drawing
		(line (pt 56 4)(pt 78 4))
		(line (pt 0 8)(pt 52 8))
		(line (pt 56 12)(pt 78 12))
		(line (pt 78 4)(pt 82 8))
		(line (pt 78 12)(pt 82 8))
		(line (pt 56 4)(pt 52 8))
		(line (pt 52 8)(pt 56 12))
	)
	(text "VCC" (rect 4 7 24 17)(font "Arial" (font_size 6)))
	(annotation_block (location)(rect 1744 1096 1808 1112))
)
(pin
	(bidir)
	(rect 1568 1096 1744 1112)
	(text "BIDIR" (rect 1 0 25 10)(font "Arial" (font_size 6)))
	(text "GPIO_1[35..0]" (rect 90 0 160 12)(font "Arial" ))
	(pt 0 8)
	(drawing
		(line (pt 56 4)(pt 78 4))
		(line (pt 0 8)(pt 52 8))
		(line (pt 56 12)(pt 78 12))
		(line (pt 78 4)(pt 82 8))
		(line (pt 78 12)(pt 82 8))
		(line (pt 56 4)(pt 52 8))
		(line (pt 52 8)(pt 56 12))
	)
	(text "VCC" (rect 4 7 24 17)(font "Arial" (font_size 6)))
	(annotation_block (location)(rect 1744 1112 1808 1128))
)
(symbol
	(rect 1048 568 1248 728)
	(text "HexDisplays" (rect 5 0 75 14)(font "Arial" (font_size 8)))
	(text "inst1" (rect 8 142 31 154)(font "Arial" ))
	(port
		(pt 0 32)
		(input)
		(text "Hex0_1[7..0]" (rect 0 0 71 14)(font "Arial" (font_size 8)))
		(text "Hex0_1[7..0]" (rect 21 27 92 41)(font "Arial" (font_size 8)))
		(line (pt 0 32)(pt 16 32)(line_width 3))
	)
	(port
		(pt 0 48)
		(input)
		(text "Hex2_3[7..0]" (rect 0 0 71 14)(font "Arial" (font_size 8)))
		(text "Hex2_3[7..0]" (rect 21 43 92 57)(font "Arial" (font_size 8)))
		(line (pt 0 48)(pt 16 48)(line_width 3))
	)
	(port
		(pt 0 64)
		(input)
		(text "Hex4_5[7..0]" (rect 0 0 71 14)(font "Arial" (font_size 8)))
		(text "Hex4_5[7..0]" (rect 21 59 92 73)(font "Arial" (font_size 8)))
		(line (pt 0 64)(pt 16 64)(line_width 3))
	)
	(port
		(pt 200 32)
		(output)
		(text "HEX1[6..0]" (rect 0 0 59 14)(font "Arial" (font_size 8)))
		(text "HEX1[6..0]" (rect 112 27 171 41)(font "Arial" (font_size 8)))
		(line (pt 200 32)(pt 184 32)(line_width 3))
	)
	(port
		(pt 200 48)
		(output)
		(text "HEX0[6..0]" (rect 0 0 59 14)(font "Arial" (font_size 8)))
		(text "HEX0[6..0]" (rect 112 43 171 57)(font "Arial" (font_size 8)))
		(line (pt 200 48)(pt 184 48)(line_width 3))
	)
	(port
		(pt 200 64)
		(output)
		(text "HEX3[6..0]" (rect 0 0 59 14)(font "Arial" (font_size 8)))
		(text "HEX3[6..0]" (rect 112 59 171 73)(font "Arial" (font_size 8)))
		(line (pt 200 64)(pt 184 64)(line_width 3))
	)
	(port
		(pt 200 80)
		(output)
		(text "HEX2[6..0]" (rect 0 0 59 14)(font "Arial" (font_size 8)))
		(text "HEX2[6..0]" (rect 112 75 171 89)(font "Arial" (font_size 8)))
		(line (pt 200 80)(pt 184 80)(line_width 3))
	)
	(port
		(pt 200 96)
		(output)
		(text "HEX5[6..0]" (rect 0 0 59 14)(font "Arial" (font_size 8)))
		(text "HEX5[6..0]" (rect 112 91 171 105)(font "Arial" (font_size 8)))
		(line (pt 200 96)(pt 184 96)(line_width 3))
	)
	(port
		(pt 200 112)
		(output)
		(text "HEX4[6..0]" (rect 0 0 59 14)(font "Arial" (font_size 8)))
		(text "HEX4[6..0]" (rect 112 107 171 121)(font "Arial" (font_size 8)))
		(line (pt 200 112)(pt 184 112)(line_width 3))
	)
	(drawing
		(rectangle (rect 16 16 184 144))
	)
)
(symbol
	(rect 464 -128 496 -112)
	(text "VCC" (rect 7 0 27 10)(font "Arial" (font_size 6)))
	(text "inst26" (rect 3 5 32 17)(font "Arial" )(invisible))
	(port
		(pt 16 16)
		(output)
		(text "1" (rect 19 7 24 19)(font "Courier New" (bold))(invisible))
		(text "1" (rect 19 7 24 19)(font "Courier New" (bold))(invisible))
		(line (pt 16 16)(pt 16 8))
	)
	(drawing
		(line (pt 8 8)(pt 24 8))
	)
)
(symbol
	(rect 464 -16 496 0)
	(text "VCC" (rect 7 6 27 16)(font "Arial" (font_size 6)))
	(text "inst21" (rect 3 -1 32 11)(font "Arial" )(invisible))
	(port
		(pt 16 0)
		(output)
		(text "1" (rect 19 7 24 19)(font "Courier New" (bold))(invisible))
		(text "1" (rect 19 -3 24 9)(font "Courier New" (bold))(invisible))
		(line (pt 16 0)(pt 16 8))
	)
	(drawing
		(line (pt 8 8)(pt 24 8))
	)
	(flipx)
)
(symbol
	(rect 448 -104 512 -24)
	(text "DFF" (rect 41 0 59 10)(font "Arial" (font_size 6)))
	(text "inst14" (rect 27 68 56 80)(font "Arial" ))
	(port
		(pt 32 80)
		(input)
		(text "CLRN" (rect 21 59 44 71)(font "Courier New" (bold)))
		(text "CLRN" (rect 10 58 33 70)(font "Courier New" (bold)))
		(line (pt 32 80)(pt 32 76))
	)
	(port
		(pt 64 40)
		(input)
		(text "CLK" (rect 3 29 20 41)(font "Courier New" (bold))(invisible))
		(text "CLK" (rect 37 29 54 41)(font "Courier New" (bold))(invisible))
		(line (pt 64 40)(pt 52 40))
	)
	(port
		(pt 64 24)
		(input)
		(text "D" (rect 14 20 19 32)(font "Courier New" (bold)))
		(text "D" (rect 42 20 47 32)(font "Courier New" (bold)))
		(line (pt 64 24)(pt 52 24))
	)
	(port
		(pt 32 0)
		(input)
		(text "PRN" (rect 24 13 41 25)(font "Courier New" (bold)))
		(text "PRN" (rect 16 11 33 23)(font "Courier New" (bold)))
		(line (pt 32 4)(pt 32 0))
	)
	(port
		(pt 0 24)
		(output)
		(text "Q" (rect 45 20 50 32)(font "Courier New" (bold)))
		(text "Q" (rect 11 20 16 32)(font "Courier New" (bold)))
		(line (pt 12 24)(pt 0 24))
	)
	(drawing
		(line (pt 52 12)(pt 12 12))
		(line (pt 52 68)(pt 12 68))
		(line (pt 12 68)(pt 12 12))
		(line (pt 52 68)(pt 52 12))
		(line (pt 45 40)(pt 52 47))
		(line (pt 52 32)(pt 44 40))
		(circle (rect 28 4 36 12))
		(circle (rect 28 68 36 76))
	)
	(flipy)
)
(symbol
	(rect 680 616 712 664)
	(text "NOT" (rect 22 1 32 21)(font "Arial" (font_size 6))(vertical))
	(text "inst32" (rect -1 3 11 32)(font "Arial" )(vertical))
	(port
		(pt 16 0)
		(input)
		(text "IN" (rect 2 7 13 19)(font "Courier New" (bold))(invisible))
		(text "IN" (rect 13 2 25 13)(font "Courier New" (bold))(vertical)(invisible))
		(line (pt 16 0)(pt 16 13))
	)
	(port
		(pt 16 48)
		(output)
		(text "OUT" (rect 32 7 49 19)(font "Courier New" (bold))(invisible))
		(text "OUT" (rect 13 32 25 49)(font "Courier New" (bold))(vertical)(invisible))
		(line (pt 16 39)(pt 16 48))
	)
	(drawing
		(line (pt 7 13)(pt 25 13))
		(line (pt 25 13)(pt 16 31))
		(line (pt 7 13)(pt 16 31))
		(circle (rect 12 31 20 39))
	)
	(rotate270)
)
(symbol
	(rect 824 -120 856 -72)
	(text "NOT" (rect 22 27 32 47)(font "Arial" (font_size 6))(vertical))
	(text "inst28" (rect -1 16 11 45)(font "Arial" )(vertical))
	(port
		(pt 16 48)
		(input)
		(text "IN" (rect 2 7 13 19)(font "Courier New" (bold))(invisible))
		(text "IN" (rect 13 35 25 46)(font "Courier New" (bold))(vertical)(invisible))
		(line (pt 16 48)(pt 16 35))
	)
	(port
		(pt 16 0)
		(output)
		(text "OUT" (rect 32 7 49 19)(font "Courier New" (bold))(invisible))
		(text "OUT" (rect 13 -1 25 16)(font "Courier New" (bold))(vertical)(invisible))
		(line (pt 16 9)(pt 16 0))
	)
	(drawing
		(line (pt 7 35)(pt 25 35))
		(line (pt 25 35)(pt 16 17))
		(line (pt 7 35)(pt 16 17))
		(circle (rect 12 9 20 17))
	)
	(flipx_rotate90)
)
(symbol
	(rect 896 -120 928 -72)
	(text "NOT" (rect 22 27 32 47)(font "Arial" (font_size 6))(vertical))
	(text "inst29" (rect -1 16 11 45)(font "Arial" )(vertical))
	(port
		(pt 16 48)
		(input)
		(text "IN" (rect 2 7 13 19)(font "Courier New" (bold))(invisible))
		(text "IN" (rect 13 35 25 46)(font "Courier New" (bold))(vertical)(invisible))
		(line (pt 16 48)(pt 16 35))
	)
	(port
		(pt 16 0)
		(output)
		(text "OUT" (rect 32 7 49 19)(font "Courier New" (bold))(invisible))
		(text "OUT" (rect 13 -1 25 16)(font "Courier New" (bold))(vertical)(invisible))
		(line (pt 16 9)(pt 16 0))
	)
	(drawing
		(line (pt 7 35)(pt 25 35))
		(line (pt 25 35)(pt 16 17))
		(line (pt 7 35)(pt 16 17))
		(circle (rect 12 9 20 17))
	)
	(flipx_rotate90)
)
(symbol
	(rect 864 -120 896 -72)
	(text "NOT" (rect 22 27 32 47)(font "Arial" (font_size 6))(vertical))
	(text "inst30" (rect -1 16 11 45)(font "Arial" )(vertical))
	(port
		(pt 16 48)
		(input)
		(text "IN" (rect 2 7 13 19)(font "Courier New" (bold))(invisible))
		(text "IN" (rect 13 35 25 46)(font "Courier New" (bold))(vertical)(invisible))
		(line (pt 16 48)(pt 16 35))
	)
	(port
		(pt 16 0)
		(output)
		(text "OUT" (rect 32 7 49 19)(font "Courier New" (bold))(invisible))
		(text "OUT" (rect 13 -1 25 16)(font "Courier New" (bold))(vertical)(invisible))
		(line (pt 16 9)(pt 16 0))
	)
	(drawing
		(line (pt 7 35)(pt 25 35))
		(line (pt 25 35)(pt 16 17))
		(line (pt 7 35)(pt 16 17))
		(circle (rect 12 9 20 17))
	)
	(flipx_rotate90)
)
(symbol
	(rect 1384 -512 1416 -480)
	(text "GND" (rect 6 8 16 29)(font "Arial" (font_size 6))(vertical))
	(text "inst15" (rect -1 3 11 32)(font "Arial" )(vertical)(invisible))
	(port
		(pt 32 16)
		(output)
		(text "1" (rect 18 0 23 12)(font "Courier New" (bold))(invisible))
		(text "1" (rect 20 18 32 23)(font "Courier New" (bold))(vertical)(invisible))
		(line (pt 24 16)(pt 32 16))
	)
	(drawing
		(line (pt 24 8)(pt 16 16))
		(line (pt 16 16)(pt 24 24))
		(line (pt 24 8)(pt 24 24))
	)
	(rotate270)
)
(symbol
	(rect 1024 -512 1280 -320)
	(text "Graphics_and_Video_Controller" (rect 5 0 186 14)(font "Arial" (font_size 8)))
	(text "inst4" (rect 8 176 31 188)(font "Arial" ))
	(port
		(pt 0 32)
		(input)
		(text "Reset_L" (rect 0 0 47 14)(font "Arial" (font_size 8)))
		(text "Reset_L" (rect 21 27 68 41)(font "Arial" (font_size 8)))
		(line (pt 0 32)(pt 16 32))
	)
	(port
		(pt 0 48)
		(input)
		(text "Address[15..0]" (rect 0 0 84 14)(font "Arial" (font_size 8)))
		(text "Address[15..0]" (rect 21 43 105 57)(font "Arial" (font_size 8)))
		(line (pt 0 48)(pt 16 48)(line_width 3))
	)
	(port
		(pt 0 64)
		(input)
		(text "DataIn[15..0]" (rect 0 0 70 14)(font "Arial" (font_size 8)))
		(text "DataIn[15..0]" (rect 21 59 91 73)(font "Arial" (font_size 8)))
		(line (pt 0 64)(pt 16 64)(line_width 3))
	)
	(port
		(pt 0 80)
		(input)
		(text "Clock_50Mhz" (rect 0 0 75 14)(font "Arial" (font_size 8)))
		(text "Clock_50Mhz" (rect 21 75 96 89)(font "Arial" (font_size 8)))
		(line (pt 0 80)(pt 16 80))
	)
	(port
		(pt 0 96)
		(input)
		(text "IOEnable_L" (rect 0 0 63 14)(font "Arial" (font_size 8)))
		(text "IOEnable_L" (rect 21 91 84 105)(font "Arial" (font_size 8)))
		(line (pt 0 96)(pt 16 96))
	)
	(port
		(pt 0 112)
		(input)
		(text "UpperByteSelect_L" (rect 0 0 109 14)(font "Arial" (font_size 8)))
		(text "UpperByteSelect_L" (rect 21 107 130 121)(font "Arial" (font_size 8)))
		(line (pt 0 112)(pt 16 112))
	)
	(port
		(pt 0 128)
		(input)
		(text "LowerByteSelect_L" (rect 0 0 113 14)(font "Arial" (font_size 8)))
		(text "LowerByteSelect_L" (rect 21 123 134 137)(font "Arial" (font_size 8)))
		(line (pt 0 128)(pt 16 128))
	)
	(port
		(pt 0 144)
		(input)
		(text "WriteEnable_L" (rect 0 0 81 14)(font "Arial" (font_size 8)))
		(text "WriteEnable_L" (rect 21 139 102 153)(font "Arial" (font_size 8)))
		(line (pt 0 144)(pt 16 144))
	)
	(port
		(pt 0 160)
		(input)
		(text "GraphicsCS_L" (rect 0 0 82 14)(font "Arial" (font_size 8)))
		(text "GraphicsCS_L" (rect 21 155 103 169)(font "Arial" (font_size 8)))
		(line (pt 0 160)(pt 16 160))
	)
	(port
		(pt 256 32)
		(output)
		(text "VGA_CLK" (rect 0 0 59 14)(font "Arial" (font_size 8)))
		(text "VGA_CLK" (rect 176 27 235 41)(font "Arial" (font_size 8)))
		(line (pt 256 32)(pt 240 32))
	)
	(port
		(pt 256 48)
		(output)
		(text "VGA_HS" (rect 0 0 51 14)(font "Arial" (font_size 8)))
		(text "VGA_HS" (rect 184 43 235 57)(font "Arial" (font_size 8)))
		(line (pt 256 48)(pt 240 48))
	)
	(port
		(pt 256 64)
		(output)
		(text "VGA_VS" (rect 0 0 53 14)(font "Arial" (font_size 8)))
		(text "VGA_VS" (rect 182 59 235 73)(font "Arial" (font_size 8)))
		(line (pt 256 64)(pt 240 64))
	)
	(port
		(pt 256 80)
		(output)
		(text "VGA_BLANK_N" (rect 0 0 92 14)(font "Arial" (font_size 8)))
		(text "VGA_BLANK_N" (rect 143 75 235 89)(font "Arial" (font_size 8)))
		(line (pt 256 80)(pt 240 80))
	)
	(port
		(pt 256 96)
		(output)
		(text "VGA_R[7..0]" (rect 0 0 71 14)(font "Arial" (font_size 8)))
		(text "VGA_R[7..0]" (rect 164 91 235 105)(font "Arial" (font_size 8)))
		(line (pt 256 96)(pt 240 96)(line_width 3))
	)
	(port
		(pt 256 112)
		(output)
		(text "VGA_G[7..0]" (rect 0 0 73 14)(font "Arial" (font_size 8)))
		(text "VGA_G[7..0]" (rect 162 107 235 121)(font "Arial" (font_size 8)))
		(line (pt 256 112)(pt 240 112)(line_width 3))
	)
	(port
		(pt 256 128)
		(output)
		(text "VGA_B[7..0]" (rect 0 0 71 14)(font "Arial" (font_size 8)))
		(text "VGA_B[7..0]" (rect 164 123 235 137)(font "Arial" (font_size 8)))
		(line (pt 256 128)(pt 240 128)(line_width 3))
	)
	(port
		(pt 256 144)
		(output)
		(text "DataOut[15..0]" (rect 0 0 81 14)(font "Arial" (font_size 8)))
		(text "DataOut[15..0]" (rect 154 139 235 153)(font "Arial" (font_size 8)))
		(line (pt 256 144)(pt 240 144)(line_width 3))
	)
	(drawing
		(rectangle (rect 16 16 240 176))
	)
)
(symbol
	(rect 368 56 640 520)
	(text "NIOS_II_SYSTEM" (rect 5 0 94 12)(font "Arial" ))
	(text "inst3" (rect 8 448 31 460)(font "Arial" ))
	(port
		(pt 0 32)
		(input)
		(text "CLOCK_50" (rect 0 0 55 12)(font "Arial" ))
		(text "CLOCK_50" (rect 21 27 76 39)(font "Arial" ))
		(line (pt 0 32)(pt 16 32))
	)
	(port
		(pt 0 48)
		(input)
		(text "KEY[0..0]" (rect 0 0 48 12)(font "Arial" ))
		(text "KEY[0..0]" (rect 21 43 69 55)(font "Arial" ))
		(line (pt 0 48)(pt 16 48)(line_width 3))
	)
	(port
		(pt 0 64)
		(input)
		(text "SW[9..0]" (rect 0 0 43 12)(font "Arial" ))
		(text "SW[9..0]" (rect 21 59 64 71)(font "Arial" ))
		(line (pt 0 64)(pt 16 64)(line_width 3))
	)
	(port
		(pt 0 80)
		(input)
		(text "IO_acknowledge" (rect 0 0 80 12)(font "Arial" ))
		(text "IO_acknowledge" (rect 21 75 101 87)(font "Arial" ))
		(line (pt 0 80)(pt 16 80))
	)
	(port
		(pt 0 96)
		(input)
		(text "IO_irq" (rect 0 0 29 12)(font "Arial" ))
		(text "IO_irq" (rect 21 91 50 103)(font "Arial" ))
		(line (pt 0 96)(pt 16 96))
	)
	(port
		(pt 0 112)
		(input)
		(text "IO_read_data[15..0]" (rect 0 0 97 12)(font "Arial" ))
		(text "IO_read_data[15..0]" (rect 21 107 118 119)(font "Arial" ))
		(line (pt 0 112)(pt 16 112)(line_width 3))
	)
	(port
		(pt 0 128)
		(input)
		(text "Push_Buttons[2..0]" (rect 0 0 94 12)(font "Arial" ))
		(text "Push_Buttons[2..0]" (rect 21 123 115 135)(font "Arial" ))
		(line (pt 0 128)(pt 16 128)(line_width 3))
	)
	(port
		(pt 272 32)
		(output)
		(text "LEDR[9..0]" (rect 0 0 55 12)(font "Arial" ))
		(text "LEDR[9..0]" (rect 205 27 260 39)(font "Arial" ))
		(line (pt 272 32)(pt 256 32)(line_width 3))
	)
	(port
		(pt 272 48)
		(output)
		(text "DRAM_ADDR[12..0]" (rect 0 0 101 12)(font "Arial" ))
		(text "DRAM_ADDR[12..0]" (rect 166 43 267 55)(font "Arial" ))
		(line (pt 272 48)(pt 256 48)(line_width 3))
	)
	(port
		(pt 272 64)
		(output)
		(text "DRAM_CLK" (rect 0 0 59 12)(font "Arial" ))
		(text "DRAM_CLK" (rect 202 59 261 71)(font "Arial" ))
		(line (pt 272 64)(pt 256 64))
	)
	(port
		(pt 272 80)
		(output)
		(text "DRAM_CKE" (rect 0 0 60 12)(font "Arial" ))
		(text "DRAM_CKE" (rect 201 75 261 87)(font "Arial" ))
		(line (pt 272 80)(pt 256 80))
	)
	(port
		(pt 272 96)
		(output)
		(text "DRAM_BA[1..0]" (rect 0 0 77 12)(font "Arial" ))
		(text "DRAM_BA[1..0]" (rect 186 91 263 103)(font "Arial" ))
		(line (pt 272 96)(pt 256 96)(line_width 3))
	)
	(port
		(pt 272 112)
		(output)
		(text "DRAM_CS_N" (rect 0 0 67 12)(font "Arial" ))
		(text "DRAM_CS_N" (rect 195 107 262 119)(font "Arial" ))
		(line (pt 272 112)(pt 256 112))
	)
	(port
		(pt 272 128)
		(output)
		(text "DRAM_CAS_N" (rect 0 0 74 12)(font "Arial" ))
		(text "DRAM_CAS_N" (rect 189 123 263 135)(font "Arial" ))
		(line (pt 272 128)(pt 256 128))
	)
	(port
		(pt 272 144)
		(output)
		(text "DRAM_RAS_N" (rect 0 0 74 12)(font "Arial" ))
		(text "DRAM_RAS_N" (rect 189 139 263 151)(font "Arial" ))
		(line (pt 272 144)(pt 256 144))
	)
	(port
		(pt 272 160)
		(output)
		(text "DRAM_WE_N" (rect 0 0 69 12)(font "Arial" ))
		(text "DRAM_WE_N" (rect 193 155 262 167)(font "Arial" ))
		(line (pt 272 160)(pt 256 160))
	)
	(port
		(pt 272 192)
		(output)
		(text "DRAM_UDQM" (rect 0 0 70 12)(font "Arial" ))
		(text "DRAM_UDQM" (rect 192 187 262 199)(font "Arial" ))
		(line (pt 272 192)(pt 256 192))
	)
	(port
		(pt 272 208)
		(output)
		(text "DRAM_LDQM" (rect 0 0 68 12)(font "Arial" ))
		(text "DRAM_LDQM" (rect 194 203 262 215)(font "Arial" ))
		(line (pt 272 208)(pt 256 208))
	)
	(port
		(pt 272 224)
		(output)
		(text "IO_address[15..0]" (rect 0 0 88 12)(font "Arial" ))
		(text "IO_address[15..0]" (rect 177 219 265 231)(font "Arial" ))
		(line (pt 272 224)(pt 256 224)(line_width 3))
	)
	(port
		(pt 272 240)
		(output)
		(text "IO_bus_enable" (rect 0 0 73 12)(font "Arial" ))
		(text "IO_bus_enable" (rect 190 235 263 247)(font "Arial" ))
		(line (pt 272 240)(pt 256 240))
	)
	(port
		(pt 272 256)
		(output)
		(text "IO_byte_enable[1..0]" (rect 0 0 103 12)(font "Arial" ))
		(text "IO_byte_enable[1..0]" (rect 164 251 267 263)(font "Arial" ))
		(line (pt 272 256)(pt 256 256)(line_width 3))
	)
	(port
		(pt 272 272)
		(output)
		(text "IO_rw" (rect 0 0 28 12)(font "Arial" ))
		(text "IO_rw" (rect 228 267 256 279)(font "Arial" ))
		(line (pt 272 272)(pt 256 272))
	)
	(port
		(pt 272 288)
		(output)
		(text "IO_write_data[15..0]" (rect 0 0 99 12)(font "Arial" ))
		(text "IO_write_data[15..0]" (rect 168 283 267 295)(font "Arial" ))
		(line (pt 272 288)(pt 256 288)(line_width 3))
	)
	(port
		(pt 272 304)
		(output)
		(text "lcd_RS" (rect 0 0 35 12)(font "Arial" ))
		(text "lcd_RS" (rect 222 299 257 311)(font "Arial" ))
		(line (pt 272 304)(pt 256 304))
	)
	(port
		(pt 272 320)
		(output)
		(text "lcd_RW" (rect 0 0 38 12)(font "Arial" ))
		(text "lcd_RW" (rect 219 315 257 327)(font "Arial" ))
		(line (pt 272 320)(pt 256 320))
	)
	(port
		(pt 272 352)
		(output)
		(text "lcd_EN" (rect 0 0 35 12)(font "Arial" ))
		(text "lcd_EN" (rect 222 347 257 359)(font "Arial" ))
		(line (pt 272 352)(pt 256 352))
	)
	(port
		(pt 272 368)
		(output)
		(text "lcd_ON" (rect 0 0 36 12)(font "Arial" ))
		(text "lcd_ON" (rect 221 363 257 375)(font "Arial" ))
		(line (pt 272 368)(pt 256 368))
	)
	(port
		(pt 272 384)
		(output)
		(text "lcd_BLON" (rect 0 0 49 12)(font "Arial" ))
		(text "lcd_BLON" (rect 210 379 259 391)(font "Arial" ))
		(line (pt 272 384)(pt 256 384))
	)
	(port
		(pt 272 400)
		(output)
		(text "Hex0_1[7..0]" (rect 0 0 63 12)(font "Arial" ))
		(text "Hex0_1[7..0]" (rect 198 395 261 407)(font "Arial" ))
		(line (pt 272 400)(pt 256 400)(line_width 3))
	)
	(port
		(pt 272 416)
		(output)
		(text "Hex2_3[7..0]" (rect 0 0 63 12)(font "Arial" ))
		(text "Hex2_3[7..0]" (rect 198 411 261 423)(font "Arial" ))
		(line (pt 272 416)(pt 256 416)(line_width 3))
	)
	(port
		(pt 272 432)
		(output)
		(text "Hex4_5[7..0]" (rect 0 0 63 12)(font "Arial" ))
		(text "Hex4_5[7..0]" (rect 198 427 261 439)(font "Arial" ))
		(line (pt 272 432)(pt 256 432)(line_width 3))
	)
	(port
		(pt 272 176)
		(bidir)
		(text "DRAM_DQ[15..0]" (rect 0 0 86 12)(font "Arial" ))
		(text "DRAM_DQ[15..0]" (rect 176 171 262 183)(font "Arial" ))
		(line (pt 272 176)(pt 256 176)(line_width 3))
	)
	(port
		(pt 272 336)
		(bidir)
		(text "lcd_data[7..0]" (rect 0 0 67 12)(font "Arial" ))
		(text "lcd_data[7..0]" (rect 198 331 265 343)(font "Arial" ))
		(line (pt 272 336)(pt 256 336)(line_width 3))
	)
	(drawing
		(rectangle (rect 16 16 256 448))
	)
)
(symbol
	(rect 960 760 1264 1016)
	(text "OnChipM68xxIO" (rect 5 0 95 14)(font "Arial" (font_size 8)))
	(text "inst" (rect 8 240 25 252)(font "Arial" ))
	(port
		(pt 0 32)
		(input)
		(text "Clock_50Mhz" (rect 0 0 75 14)(font "Arial" (font_size 8)))
		(text "Clock_50Mhz" (rect 21 27 96 41)(font "Arial" (font_size 8)))
		(line (pt 0 32)(pt 16 32))
	)
	(port
		(pt 0 48)
		(input)
		(text "DataIn[7..0]" (rect 0 0 63 14)(font "Arial" (font_size 8)))
		(text "DataIn[7..0]" (rect 21 43 84 57)(font "Arial" (font_size 8)))
		(line (pt 0 48)(pt 16 48)(line_width 3))
	)
	(port
		(pt 0 64)
		(input)
		(text "Address[15..0]" (rect 0 0 84 14)(font "Arial" (font_size 8)))
		(text "Address[15..0]" (rect 21 59 105 73)(font "Arial" (font_size 8)))
		(line (pt 0 64)(pt 16 64)(line_width 3))
	)
	(port
		(pt 0 80)
		(input)
		(text "IOSelect_H" (rect 0 0 62 14)(font "Arial" (font_size 8)))
		(text "IOSelect_H" (rect 21 75 83 89)(font "Arial" (font_size 8)))
		(line (pt 0 80)(pt 16 80))
	)
	(port
		(pt 0 96)
		(input)
		(text "ByteSelect_L" (rect 0 0 75 14)(font "Arial" (font_size 8)))
		(text "ByteSelect_L" (rect 21 91 96 105)(font "Arial" (font_size 8)))
		(line (pt 0 96)(pt 16 96))
	)
	(port
		(pt 0 112)
		(input)
		(text "WE_L" (rect 0 0 33 14)(font "Arial" (font_size 8)))
		(text "WE_L" (rect 21 107 54 121)(font "Arial" (font_size 8)))
		(line (pt 0 112)(pt 16 112))
	)
	(port
		(pt 0 128)
		(input)
		(text "Reset_L" (rect 0 0 47 14)(font "Arial" (font_size 8)))
		(text "Reset_L" (rect 21 123 68 137)(font "Arial" (font_size 8)))
		(line (pt 0 128)(pt 16 128))
	)
	(port
		(pt 0 144)
		(input)
		(text "RS232_RxData" (rect 0 0 86 14)(font "Arial" (font_size 8)))
		(text "RS232_RxData" (rect 21 139 107 153)(font "Arial" (font_size 8)))
		(line (pt 0 144)(pt 16 144))
	)
	(port
		(pt 0 160)
		(input)
		(text "GPS_RxData" (rect 0 0 73 14)(font "Arial" (font_size 8)))
		(text "GPS_RxData" (rect 21 155 94 169)(font "Arial" (font_size 8)))
		(line (pt 0 160)(pt 16 160))
	)
	(port
		(pt 0 176)
		(input)
		(text "BlueTooth_RxData" (rect 0 0 105 14)(font "Arial" (font_size 8)))
		(text "BlueTooth_RxData" (rect 21 171 126 185)(font "Arial" (font_size 8)))
		(line (pt 0 176)(pt 16 176))
	)
	(port
		(pt 0 192)
		(input)
		(text "TouchScreen_RxData" (rect 0 0 125 14)(font "Arial" (font_size 8)))
		(text "TouchScreen_RxData" (rect 21 187 146 201)(font "Arial" (font_size 8)))
		(line (pt 0 192)(pt 16 192))
	)
	(port
		(pt 0 208)
		(input)
		(text "WiFi_RxData" (rect 0 0 71 14)(font "Arial" (font_size 8)))
		(text "WiFi_RxData" (rect 21 203 92 217)(font "Arial" (font_size 8)))
		(line (pt 0 208)(pt 16 208))
	)
	(port
		(pt 304 32)
		(output)
		(text "DataOut[7..0]" (rect 0 0 74 14)(font "Arial" (font_size 8)))
		(text "DataOut[7..0]" (rect 209 27 283 41)(font "Arial" (font_size 8)))
		(line (pt 304 32)(pt 288 32)(line_width 3))
	)
	(port
		(pt 304 48)
		(output)
		(text "RS232_TxData" (rect 0 0 84 14)(font "Arial" (font_size 8)))
		(text "RS232_TxData" (rect 199 43 283 57)(font "Arial" (font_size 8)))
		(line (pt 304 48)(pt 288 48))
	)
	(port
		(pt 304 64)
		(output)
		(text "ACIA_IRQ" (rect 0 0 56 14)(font "Arial" (font_size 8)))
		(text "ACIA_IRQ" (rect 227 59 283 73)(font "Arial" (font_size 8)))
		(line (pt 304 64)(pt 288 64))
	)
	(port
		(pt 304 80)
		(output)
		(text "GPS_TxData" (rect 0 0 71 14)(font "Arial" (font_size 8)))
		(text "GPS_TxData" (rect 212 75 283 89)(font "Arial" (font_size 8)))
		(line (pt 304 80)(pt 288 80))
	)
	(port
		(pt 304 96)
		(output)
		(text "BlueTooth_TxData" (rect 0 0 103 14)(font "Arial" (font_size 8)))
		(text "BlueTooth_TxData" (rect 180 91 283 105)(font "Arial" (font_size 8)))
		(line (pt 304 96)(pt 288 96))
	)
	(port
		(pt 304 112)
		(output)
		(text "TouchScreen_TxData" (rect 0 0 123 14)(font "Arial" (font_size 8)))
		(text "TouchScreen_TxData" (rect 160 107 283 121)(font "Arial" (font_size 8)))
		(line (pt 304 112)(pt 288 112))
	)
	(port
		(pt 304 128)
		(output)
		(text "WiFi_TxData" (rect 0 0 70 14)(font "Arial" (font_size 8)))
		(text "WiFi_TxData" (rect 213 123 283 137)(font "Arial" (font_size 8)))
		(line (pt 304 128)(pt 288 128))
	)
	(drawing
		(rectangle (rect 16 16 288 240))
	)
)
(connector
	(text "IO_byte_enable[0]" (rect 680 487 692 577)(font "Arial" )(vertical))
	(pt 696 312)
	(pt 696 616)
)
(connector
	(pt 840 296)
	(pt 1000 296)
)
(connector
	(pt 840 -72)
	(pt 840 296)
)
(connector
	(pt 480 -104)
	(pt 480 -112)
)
(connector
	(pt 480 -24)
	(pt 480 -16)
)
(connector
	(pt 528 -64)
	(pt 512 -64)
)
(connector
	(pt 320 -80)
	(pt 448 -80)
)
(connector
	(pt 664 -80)
	(pt 512 -80)
)
(connector
	(pt 664 296)
	(pt 664 -80)
)
(connector
	(text "IO_byte_enable[1]" (rect 864 -57 876 33)(font "Arial" )(vertical))
	(pt 880 312)
	(pt 880 -72)
)
(connector
	(text "IO_byte_enable[0]" (rect 896 -57 908 33)(font "Arial" )(vertical))
	(pt 912 312)
	(pt 912 -72)
)
(connector
	(pt 880 312)
	(pt 912 312)
	(bus)
)
(connector
	(pt 912 312)
	(pt 1000 312)
	(bus)
)
(connector
	(pt 288 -248)
	(pt 1416 -248)
	(bus)
)
(connector
	(pt 528 -64)
	(pt 528 24)
)
(connector
	(pt 1416 -496)
	(pt 1448 -496)
)
(connector
	(pt 344 24)
	(pt 528 24)
)
(connector
	(pt 1416 -248)
	(pt 1416 -368)
	(bus)
)
(connector
	(text "key[0]" (rect 224 41 236 72)(font "Arial" )(vertical))
	(pt 224 104)
	(pt 224 -480)
)
(connector
	(pt 776 280)
	(pt 776 -464)
	(bus)
)
(connector
	(pt 792 344)
	(pt 792 -448)
	(bus)
)
(connector
	(pt 880 -120)
	(pt 880 -400)
)
(connector
	(pt 912 -120)
	(pt 912 -384)
)
(connector
	(pt 944 328)
	(pt 944 -368)
)
(connector
	(pt 208 88)
	(pt 208 -432)
)
(connector
	(pt 224 -480)
	(pt 1024 -480)
)
(connector
	(pt 776 -464)
	(pt 1024 -464)
	(bus)
)
(connector
	(pt 792 -448)
	(pt 1024 -448)
	(bus)
)
(connector
	(pt 208 -432)
	(pt 1024 -432)
)
(connector
	(pt 840 -416)
	(pt 1024 -416)
)
(connector
	(pt 880 -400)
	(pt 1024 -400)
)
(connector
	(pt 912 -384)
	(pt 1024 -384)
)
(connector
	(pt 944 -368)
	(pt 1024 -368)
)
(connector
	(pt 840 -352)
	(pt 1024 -352)
)
(connector
	(pt 776 280)
	(pt 1000 280)
	(bus)
)
(connector
	(pt 792 344)
	(pt 1000 344)
	(bus)
)
(connector
	(pt 944 328)
	(pt 1000 328)
)
(connector
	(pt 80 88)
	(pt 208 88)
)
(connector
	(pt 840 -416)
	(pt 840 -352)
)
(connector
	(pt 840 -352)
	(pt 840 -120)
)
(connector
	(pt 1280 -480)
	(pt 1448 -480)
)
(connector
	(pt 1280 -464)
	(pt 1448 -464)
)
(connector
	(pt 1280 -448)
	(pt 1448 -448)
)
(connector
	(pt 1280 -432)
	(pt 1448 -432)
)
(connector
	(pt 1280 -416)
	(pt 1448 -416)
	(bus)
)
(connector
	(pt 1280 -400)
	(pt 1448 -400)
	(bus)
)
(connector
	(pt 1280 -384)
	(pt 1448 -384)
	(bus)
)
(connector
	(pt 1280 -368)
	(pt 1416 -368)
	(bus)
)
(connector
	(pt 1000 600)
	(pt 1048 600)
	(bus)
)
(connector
	(pt 984 616)
	(pt 1048 616)
	(bus)
)
(connector
	(pt 968 632)
	(pt 1048 632)
	(bus)
)
(connector
	(pt 1248 600)
	(pt 1288 600)
	(bus)
)
(connector
	(pt 1248 616)
	(pt 1288 616)
	(bus)
)
(connector
	(pt 1248 632)
	(pt 1288 632)
	(bus)
)
(connector
	(pt 1248 648)
	(pt 1288 648)
	(bus)
)
(connector
	(pt 1248 664)
	(pt 1288 664)
	(bus)
)
(connector
	(pt 1248 680)
	(pt 1288 680)
	(bus)
)
(connector
	(pt 1472 1104)
	(pt 1568 1104)
	(bus)
)
(connector
	(pt 1568 1088)
	(pt 1472 1088)
	(bus)
)
(connector
	(pt 312 728)
	(pt 1352 728)
)
(connector
	(text "IO_read_data[7..0]" (rect 482 736 574 748)(font "Arial" ))
	(pt 1336 752)
	(pt 288 752)
	(bus)
)
(connector
	(pt 1264 88)
	(pt 640 88)
	(bus)
)
(connector
	(pt 1264 104)
	(pt 640 104)
	(bus)
)
(connector
	(pt 1264 120)
	(pt 640 120)
)
(connector
	(pt 80 120)
	(pt 368 120)
	(bus)
)
(connector
	(pt 1264 136)
	(pt 640 136)
)
(connector
	(pt 1264 152)
	(pt 640 152)
	(bus)
)
(connector
	(pt 1264 168)
	(pt 640 168)
)
(connector
	(text "IO_read_data[15..0]" (rect 304 152 401 164)(font "Arial" )(invisible))
	(pt 288 168)
	(pt 368 168)
	(bus)
)
(connector
	(pt 1264 184)
	(pt 640 184)
)
(connector
	(pt 80 184)
	(pt 368 184)
	(bus)
)
(connector
	(pt 1264 200)
	(pt 640 200)
)
(connector
	(pt 1264 216)
	(pt 640 216)
)
(connector
	(pt 1264 232)
	(pt 640 232)
	(bus)
)
(connector
	(pt 1264 248)
	(pt 640 248)
)
(connector
	(pt 1264 264)
	(pt 640 264)
)
(connector
	(pt 320 -80)
	(pt 320 136)
)
(connector
	(pt 320 136)
	(pt 368 136)
)
(connector
	(pt 968 488)
	(pt 640 488)
	(bus)
)
(connector
	(pt 984 472)
	(pt 640 472)
	(bus)
)
(connector
	(pt 1000 456)
	(pt 640 456)
	(bus)
)
(connector
	(text "gpio_1[13]" (rect 1202 392 1252 404)(font "Arial" ))
	(pt 640 408)
	(pt 1256 408)
)
(connector
	(text "gpio_1[11]" (rect 1202 344 1252 356)(font "Arial" ))
	(pt 640 360)
	(pt 1256 360)
)
(connector
	(pt 968 632)
	(pt 968 488)
	(bus)
)
(connector
	(pt 984 616)
	(pt 984 472)
	(bus)
)
(connector
	(pt 1000 600)
	(pt 1000 456)
	(bus)
)
(connector
	(text "gpio_1[7..0]" (rect 1202 376 1259 388)(font "Arial" ))
	(pt 1256 392)
	(pt 640 392)
	(bus)
)
(connector
	(text "IO_read_data[15..0]" (rect 264 -193 276 -96)(font "Arial" )(vertical))
	(pt 288 -248)
	(pt 288 168)
	(bus)
)
(connector
	(pt 288 168)
	(pt 288 752)
	(bus)
)
(connector
	(pt 208 88)
	(pt 344 88)
)
(connector
	(pt 344 88)
	(pt 368 88)
)
(connector
	(pt 224 104)
	(pt 368 104)
	(bus)
)
(connector
	(pt 640 296)
	(pt 664 296)
)
(connector
	(pt 640 312)
	(pt 696 312)
	(bus)
)
(connector
	(text "IO_byte_enable[1..0]" (rect 650 296 753 308)(font "Arial" )(invisible))
	(pt 696 312)
	(pt 880 312)
	(bus)
)
(connector
	(pt 368 152)
	(pt 312 152)
)
(connector
	(pt 312 728)
	(pt 312 152)
)
(connector
	(text "gpio_1[15]" (rect 1202 360 1252 372)(font "Arial" ))
	(pt 640 376)
	(pt 1256 376)
)
(connector
	(text "GPIO_1[32]" (rect 746 920 803 932)(font "Arial" ))
	(pt 960 936)
	(pt 736 936)
)
(connector
	(pt 696 664)
	(pt 696 856)
)
(connector
	(pt 696 856)
	(pt 960 856)
)
(connector
	(pt 728 824)
	(pt 960 824)
	(bus)
)
(connector
	(pt 728 280)
	(pt 728 824)
	(bus)
)
(connector
	(pt 1336 792)
	(pt 1264 792)
	(bus)
)
(connector
	(text "GPIO_1[26]" (rect 1314 824 1371 836)(font "Arial" ))
	(pt 1264 840)
	(pt 1408 840)
)
(connector
	(text "GPIO_1[34]" (rect 1314 840 1371 852)(font "Arial" ))
	(pt 1264 856)
	(pt 1408 856)
)
(connector
	(text "GPIO_0[10]" (rect 1314 856 1371 868)(font "Arial" ))
	(pt 1264 872)
	(pt 1408 872)
)
(connector
	(pt 1352 824)
	(pt 1264 824)
)
(connector
	(pt 1352 728)
	(pt 1352 824)
)
(connector
	(pt 1336 752)
	(pt 1336 792)
	(bus)
)
(connector
	(text "GPIO_1[28]" (rect 746 904 803 916)(font "Arial" ))
	(pt 960 920)
	(pt 736 920)
)
(connector
	(pt 120 104)
	(pt 120 888)
)
(connector
	(text "key[0]" (rect 130 872 161 884)(font "Arial" ))
	(pt 120 888)
	(pt 960 888)
)
(connector
	(text "GPIO_0[0]" (rect 1370 784 1421 796)(font "Arial" ))
	(pt 1264 808)
	(pt 1448 808)
)
(connector
	(text "GPIO_0[2]" (rect 874 888 925 900)(font "Arial" ))
	(pt 960 904)
	(pt 864 904)
)
(connector
	(pt 744 808)
	(pt 960 808)
	(bus)
)
(connector
	(text "IO_write_data[7..0]" (rect 728 551 740 644)(font "Arial" )(vertical))
	(pt 744 344)
	(pt 744 808)
	(bus)
)
(connector
	(pt 712 840)
	(pt 960 840)
)
(connector
	(pt 712 296)
	(pt 712 840)
)
(connector
	(pt 344 792)
	(pt 960 792)
)
(connector
	(pt 680 872)
	(pt 960 872)
)
(connector
	(pt 680 328)
	(pt 680 872)
)
(connector
	(pt 640 280)
	(pt 728 280)
	(bus)
)
(connector
	(pt 728 280)
	(pt 776 280)
	(bus)
)
(connector
	(pt 80 104)
	(pt 120 104)
	(bus)
)
(connector
	(pt 120 104)
	(pt 224 104)
	(bus)
)
(connector
	(text "IO_write_data[15..0]" (rect 650 328 749 340)(font "Arial" )(invisible))
	(pt 640 344)
	(pt 744 344)
	(bus)
)
(connector
	(pt 744 344)
	(pt 792 344)
	(bus)
)
(connector
	(pt 664 296)
	(pt 712 296)
)
(connector
	(pt 712 296)
	(pt 840 296)
)
(connector
	(pt 640 328)
	(pt 680 328)
)
(connector
	(pt 680 328)
	(pt 944 328)
)
(connector
	(pt 344 24)
	(pt 344 88)
)
(connector
	(pt 344 88)
	(pt 344 792)
)
(connector
	(text "GPIO_1[33]" (rect 1314 872 1371 884)(font "Arial" ))
	(pt 1408 888)
	(pt 1264 888)
)
(connector
	(text "GPIO_0[11]" (rect 746 936 803 948)(font "Arial" ))
	(pt 960 952)
	(pt 736 952)
)
(connector
	(text "GPIO_1[35]" (rect 746 952 803 964)(font "Arial" ))
	(pt 960 968)
	(pt 736 968)
)
(junction (pt 664 296))
(junction (pt 696 312))
(junction (pt 208 88))
(junction (pt 224 104))
(junction (pt 840 296))
(junction (pt 288 168))
(junction (pt 776 280))
(junction (pt 792 344))
(junction (pt 880 312))
(junction (pt 912 312))
(junction (pt 944 328))
(junction (pt 840 -352))
(junction (pt 344 88))
(junction (pt 120 104))
(junction (pt 728 280))
(junction (pt 744 344))
(junction (pt 712 296))
(junction (pt 680 328))
(text "IO BaseAddress 0x8400_0200 - 0x8400_02FF" (rect 1024 1056 1289 1070)(font "Arial" (font_size 8)))
(text "GPS_TXD" (rect 1448 832 1503 846)(font "Arial" (font_size 8)))
(text "BlueTooth_TXD" (rect 1448 848 1535 862)(font "Arial" (font_size 8)))
(text "GPS_RXD" (rect 680 912 736 926)(font "Arial" (font_size 8)))
(text "BlueTooth_RXD" (rect 648 928 736 942)(font "Arial" (font_size 8)))
(text "TouchScreen_RXD" (rect 632 944 740 958)(font "Arial" (font_size 8)))
(text "Acknowledge of 1 clock delay" (rect 560 -144 732 -130)(font "Arial" (font_size 8)))
(text "introduces a Wait State for slow" (rect 560 -128 744 -114)(font "Arial" (font_size 8)))
(text "Bridge Peripherals" (rect 560 -112 663 -98)(font "Arial" (font_size 8)))
(text "TouchScreen_TXD" (rect 1448 864 1555 878)(font "Arial" (font_size 8)))
(text "These pins are DE specific and drive the video DAC clock and sync pulses etc" (rect 1400 -544 1846 -530)(font "Arial" (font_size 8)))
(text "2 byte enable signals for 16 bit IO devices. byte_enable[0]  = '1' if data is being transferred over D7-D0" (rect 1032 304 1613 318)(font "Arial" (font_size 8)))
(text "byte_enable[1]  = '1' if data is being transferred over D15-D8" (rect 1032 320 1375 334)(font "Arial" (font_size 8)))
(text "1" (rect 1744 48 1751 62)(font "Arial" (font_size 8)))
(text "2" (rect 1944 48 1951 62)(font "Arial" (font_size 8)))
(text "3" (rect 1744 64 1751 78)(font "Arial" (font_size 8)))
(text "4" (rect 1944 64 1951 78)(font "Arial" (font_size 8)))
(text "5" (rect 1744 80 1751 94)(font "Arial" (font_size 8)))
(text "7" (rect 1744 96 1751 110)(font "Arial" (font_size 8)))
(text "6" (rect 1944 80 1951 94)(font "Arial" (font_size 8)))
(text "8" (rect 1944 96 1951 110)(font "Arial" (font_size 8)))
(text "9" (rect 1744 112 1751 126)(font "Arial" (font_size 8)))
(text "10" (rect 1944 112 1958 126)(font "Arial" (font_size 8)))
(text "11" (rect 1744 136 1758 150)(font "Arial" (font_size 8)))
(text "12" (rect 1944 136 1958 150)(font "Arial" (font_size 8)))
(text "13" (rect 1744 160 1758 174)(font "Arial" (font_size 8)))
(text "15" (rect 1744 176 1758 190)(font "Arial" (font_size 8)))
(text "17" (rect 1744 192 1758 206)(font "Arial" (font_size 8)))
(text "19" (rect 1744 208 1758 222)(font "Arial" (font_size 8)))
(text "21" (rect 1744 224 1758 238)(font "Arial" (font_size 8)))
(text "23" (rect 1744 240 1758 254)(font "Arial" (font_size 8)))
(text "25" (rect 1744 256 1758 270)(font "Arial" (font_size 8)))
(text "27" (rect 1744 272 1758 286)(font "Arial" (font_size 8)))
(text "14" (rect 1944 160 1958 174)(font "Arial" (font_size 8)))
(text "16" (rect 1944 176 1958 190)(font "Arial" (font_size 8)))
(text "18" (rect 1944 192 1958 206)(font "Arial" (font_size 8)))
(text "20" (rect 1944 208 1958 222)(font "Arial" (font_size 8)))
(text "22" (rect 1944 224 1958 238)(font "Arial" (font_size 8)))
(text "24" (rect 1944 240 1958 254)(font "Arial" (font_size 8)))
(text "26" (rect 1944 256 1958 270)(font "Arial" (font_size 8)))
(text "28" (rect 1944 272 1958 286)(font "Arial" (font_size 8)))
(text "29" (rect 1744 296 1758 310)(font "Arial" (font_size 8)))
(text "30" (rect 1944 296 1958 310)(font "Arial" (font_size 8)))
(text "31" (rect 1744 320 1758 334)(font "Arial" (font_size 8)))
(text "33" (rect 1744 336 1758 350)(font "Arial" (font_size 8)))
(text "35" (rect 1744 352 1758 366)(font "Arial" (font_size 8)))
(text "37" (rect 1744 368 1758 382)(font "Arial" (font_size 8)))
(text "39" (rect 1744 384 1758 398)(font "Arial" (font_size 8)))
(text "32" (rect 1944 320 1958 334)(font "Arial" (font_size 8)))
(text "34" (rect 1944 336 1958 350)(font "Arial" (font_size 8)))
(text "36" (rect 1944 352 1958 366)(font "Arial" (font_size 8)))
(text "38" (rect 1944 368 1958 382)(font "Arial" (font_size 8)))
(text "40" (rect 1944 384 1958 398)(font "Arial" (font_size 8)))
(text "1" (rect 2328 48 2335 62)(font "Arial" (font_size 8)))
(text "3" (rect 2328 64 2335 78)(font "Arial" (font_size 8)))
(text "5" (rect 2328 80 2335 94)(font "Arial" (font_size 8)))
(text "7" (rect 2328 96 2335 110)(font "Arial" (font_size 8)))
(text "9" (rect 2328 112 2335 126)(font "Arial" (font_size 8)))
(text "11" (rect 2328 136 2342 150)(font "Arial" (font_size 8)))
(text "13" (rect 2328 160 2342 174)(font "Arial" (font_size 8)))
(text "15" (rect 2328 176 2342 190)(font "Arial" (font_size 8)))
(text "17" (rect 2328 192 2342 206)(font "Arial" (font_size 8)))
(text "19" (rect 2328 208 2342 222)(font "Arial" (font_size 8)))
(text "21" (rect 2328 224 2342 238)(font "Arial" (font_size 8)))
(text "23" (rect 2328 240 2342 254)(font "Arial" (font_size 8)))
(text "25" (rect 2328 256 2342 270)(font "Arial" (font_size 8)))
(text "27" (rect 2328 272 2342 286)(font "Arial" (font_size 8)))
(text "29" (rect 2328 296 2342 310)(font "Arial" (font_size 8)))
(text "31" (rect 2328 320 2342 334)(font "Arial" (font_size 8)))
(text "33" (rect 2328 336 2342 350)(font "Arial" (font_size 8)))
(text "35" (rect 2328 352 2342 366)(font "Arial" (font_size 8)))
(text "37" (rect 2328 368 2342 382)(font "Arial" (font_size 8)))
(text "39" (rect 2328 384 2342 398)(font "Arial" (font_size 8)))
(text "2" (rect 2512 48 2519 62)(font "Arial" (font_size 8)))
(text "4" (rect 2512 64 2519 78)(font "Arial" (font_size 8)))
(text "6" (rect 2512 80 2519 94)(font "Arial" (font_size 8)))
(text "8" (rect 2512 96 2519 110)(font "Arial" (font_size 8)))
(text "10" (rect 2512 112 2526 126)(font "Arial" (font_size 8)))
(text "12" (rect 2512 136 2526 150)(font "Arial" (font_size 8)))
(text "14" (rect 2512 160 2526 174)(font "Arial" (font_size 8)))
(text "16" (rect 2512 176 2526 190)(font "Arial" (font_size 8)))
(text "18" (rect 2512 192 2526 206)(font "Arial" (font_size 8)))
(text "20" (rect 2512 208 2526 222)(font "Arial" (font_size 8)))
(text "22" (rect 2512 224 2526 238)(font "Arial" (font_size 8)))
(text "24" (rect 2512 240 2526 254)(font "Arial" (font_size 8)))
(text "26" (rect 2512 256 2526 270)(font "Arial" (font_size 8)))
(text "28" (rect 2512 272 2526 286)(font "Arial" (font_size 8)))
(text "30" (rect 2512 296 2526 310)(font "Arial" (font_size 8)))
(text "32" (rect 2512 320 2526 334)(font "Arial" (font_size 8)))
(text "34" (rect 2512 336 2526 350)(font "Arial" (font_size 8)))
(text "36" (rect 2512 352 2526 366)(font "Arial" (font_size 8)))
(text "38" (rect 2512 368 2526 382)(font "Arial" (font_size 8)))
(text "40" (rect 2512 384 2526 398)(font "Arial" (font_size 8)))
(text "Vcc 5v" (rect 1688 136 1729 150)(font "Arial" (color 255 0 0)(font_size 8)))
(text "GND" (rect 1968 296 1993 310)(font "Arial" (color 255 0 0)(font_size 8)))
(text "Vcc 3.3v" (rect 1680 296 1731 310)(font "Arial" (color 255 0 0)(font_size 8)))
(text "GND" (rect 1968 136 1993 150)(font "Arial" (color 255 0 0)(font_size 8)))
(text "GND" (rect 2544 296 2569 310)(font "Arial" (color 255 0 0)(font_size 8)))
(text "Vcc 3.3v" (rect 2264 296 2315 310)(font "Arial" (color 255 0 0)(font_size 8)))
(text "GND" (rect 2544 136 2569 150)(font "Arial" (color 255 0 0)(font_size 8)))
(text "Vcc 5v" (rect 2272 136 2313 150)(font "Arial" (color 255 0 0)(font_size 8)))
(text "Pin Numbers 1 - 40" (rect 2384 416 2491 430)(font "Arial" (color 0 0 255)(font_size 8)))
(text "Pin Numbers 1 - 40" (rect 1800 416 1907 430)(font "Arial" (color 0 0 255)(font_size 8)))
(text "[0] - AC18" (rect 1768 48 1825 62)(font "Arial" (color 170 0 255)(font_size 8)))
(text "[0] - AB17" (rect 2352 48 2409 62)(font "Arial" (color 170 0 255)(font_size 8)))
(text "YOU CAN MAKE CHANGES TO THE PIN ASSIGNMENTS TO PORTS GPIO 0 AND 1  IF YOU WISH, BUT DO NOT ASSIGN ANY SIGNAL TO " (rect 1768 -88 3036 -70)(font "Arial" (color 255 0 0)(font_size 12)))
(text "PIN_AF4 OR PIN_AF5 IN THE PIN PLANNER AS THE QUARTUS PROGRAMMER DOWNLOAD TO FPGA WILL FAIL HALF WAY THROUGH" (rect 1768 -64 3041 -46)(font "Arial" (color 255 0 0)(font_size 12)))
(text "CHECK IN THE DE1-SoC MANUAL TO SEE WHAT PINS ARE ASSIGNED TO CHIPS AND IO PORTS ON THE BOARD. " (rect 1768 -32 2601 -16)(font "Arial" (color 0 0 255)(font_size 10)))
(text "GPS_TXD" (rect 1448 832 1503 846)(font "Arial" (font_size 8)))
(text "GPS_RXD" (rect 680 912 736 926)(font "Arial" (font_size 8)))
(text "GPS_TXD" (rect 2256 320 2311 334)(font "Arial" (font_size 8)))
(text "GPS_RXD" (rect 2256 336 2312 350)(font "Arial" (font_size 8)))
(text "For these pin-outs - see the GPIO_0 and GPIO1 connectors top right in this file" (rect 888 1088 1487 1105)(font "Arial" (color 255 0 0)(font_size 11)))
(text "BlueTooth_RXD" (rect 2232 368 2320 382)(font "Arial" (font_size 8)))
(text "BlueTooth_TXD" (rect 2232 384 2319 398)(font "Arial" (font_size 8)))
(text "TouchScreen_RXD" (rect 1976 160 2084 174)(font "Arial" (font_size 8)))
(text "TouchScreen_TXD" (rect 1632 160 1739 174)(font "Arial" (font_size 8)))
(text "[1] - Y17" (rect 1864 48 1913 62)(font "Arial" (color 170 0 255)(font_size 8)))
(text "[2] - AD17" (rect 1768 64 1825 78)(font "Arial" (color 170 0 255)(font_size 8)))
(text "[3] - Y18" (rect 1864 64 1913 78)(font "Arial" (color 170 0 255)(font_size 8)))
(text "[4] - AK16" (rect 1768 80 1825 94)(font "Arial" (color 170 0 255)(font_size 8)))
(text "[5] - AK18" (rect 1864 80 1921 94)(font "Arial" (color 170 0 255)(font_size 8)))
(text "[6] - AK19" (rect 1768 96 1825 110)(font "Arial" (color 170 0 255)(font_size 8)))
(text "[7] - AJ19" (rect 1864 96 1919 110)(font "Arial" (color 170 0 255)(font_size 8)))
(text "[8] - AJ17" (rect 1768 112 1823 126)(font "Arial" (color 170 0 255)(font_size 8)))
(text "[9] - AJ16" (rect 1864 112 1919 126)(font "Arial" (color 170 0 255)(font_size 8)))
(text "[10] - AH18" (rect 1768 160 1832 174)(font "Arial" (color 170 0 255)(font_size 8)))
(text "[11] - AH17" (rect 1864 160 1928 174)(font "Arial" (color 170 0 255)(font_size 8)))
(text "[12] - AG16" (rect 1768 176 1834 190)(font "Arial" (color 170 0 255)(font_size 8)))
(text "[13] - AE16" (rect 1864 176 1927 190)(font "Arial" (color 170 0 255)(font_size 8)))
(text "[14] - AF16" (rect 1768 192 1831 206)(font "Arial" (color 170 0 255)(font_size 8)))
(text "[15] - AG17" (rect 1864 192 1930 206)(font "Arial" (color 170 0 255)(font_size 8)))
(text "[16] - AA18" (rect 1768 208 1834 222)(font "Arial" (color 170 0 255)(font_size 8)))
(text "[17] - AA19" (rect 1864 208 1930 222)(font "Arial" (color 170 0 255)(font_size 8)))
(text "[18] - AE17" (rect 1768 224 1831 238)(font "Arial" (color 170 0 255)(font_size 8)))
(text "[19] - AC20" (rect 1864 224 1928 238)(font "Arial" (color 170 0 255)(font_size 8)))
(text "[20] - AH19" (rect 1768 240 1832 254)(font "Arial" (color 170 0 255)(font_size 8)))
(text "[21] - AJ20" (rect 1864 240 1926 254)(font "Arial" (color 170 0 255)(font_size 8)))
(text "[22] - AH20" (rect 1768 256 1832 270)(font "Arial" (color 170 0 255)(font_size 8)))
(text "[23] - AK21" (rect 1864 256 1928 270)(font "Arial" (color 170 0 255)(font_size 8)))
(text "[24] - AD19" (rect 1768 272 1832 286)(font "Arial" (color 170 0 255)(font_size 8)))
(text "[25] - AD20" (rect 1864 272 1928 286)(font "Arial" (color 170 0 255)(font_size 8)))
(text "[26] - AE18" (rect 1768 320 1831 334)(font "Arial" (color 170 0 255)(font_size 8)))
(text "[27] - AE19" (rect 1864 320 1927 334)(font "Arial" (color 170 0 255)(font_size 8)))
(text "[28] - AF20" (rect 1768 336 1831 350)(font "Arial" (color 170 0 255)(font_size 8)))
(text "[29] - AF21" (rect 1864 336 1927 350)(font "Arial" (color 170 0 255)(font_size 8)))
(text "[30] - AF19" (rect 1768 352 1831 366)(font "Arial" (color 170 0 255)(font_size 8)))
(text "[31] - AG21" (rect 1864 352 1930 366)(font "Arial" (color 170 0 255)(font_size 8)))
(text "[32] - AF18" (rect 1768 368 1831 382)(font "Arial" (color 170 0 255)(font_size 8)))
(text "[33] - AG20" (rect 1864 368 1930 382)(font "Arial" (color 170 0 255)(font_size 8)))
(text "[34] - AG18" (rect 1768 384 1834 398)(font "Arial" (color 170 0 255)(font_size 8)))
(text "[35] - AJ21" (rect 1864 384 1926 398)(font "Arial" (color 170 0 255)(font_size 8)))
(text "JP2 (GPIO 1) Connector (RHS)  - [x] = GPIO_1[x]" (rect 2304 16 2576 30)(font "Arial" (color 0 0 255)(font_size 8)))
(text "JPI (GPIO 0) Connector (LHS) - [x] = GPIO_O[x]" (rect 1736 16 2001 30)(font "Arial" (color 0 0 255)(font_size 8)))
(text "[1] - AA21" (rect 2440 48 2499 62)(font "Arial" (color 170 0 255)(font_size 8)))
(text "[2] - AB21" (rect 2352 64 2409 78)(font "Arial" (color 170 0 255)(font_size 8)))
(text "[3] - AC23" (rect 2440 64 2497 78)(font "Arial" (color 170 0 255)(font_size 8)))
(text "[4] - AD24" (rect 2352 80 2409 94)(font "Arial" (color 170 0 255)(font_size 8)))
(text "[5] - AE23" (rect 2440 80 2496 94)(font "Arial" (color 170 0 255)(font_size 8)))
(text "[6] - AE24" (rect 2352 96 2408 110)(font "Arial" (color 170 0 255)(font_size 8)))
(text "[7] - AF25" (rect 2440 96 2496 110)(font "Arial" (color 170 0 255)(font_size 8)))
(text "[8] - AF26" (rect 2352 112 2408 126)(font "Arial" (color 170 0 255)(font_size 8)))
(text "[9] - AG25" (rect 2440 112 2499 126)(font "Arial" (color 170 0 255)(font_size 8)))
(text "[10] - AG26" (rect 2352 160 2418 174)(font "Arial" (color 170 0 255)(font_size 8)))
(text "[11] - AH24" (rect 2440 160 2504 174)(font "Arial" (color 170 0 255)(font_size 8)))
(text "[12] - AH27" (rect 2352 176 2416 190)(font "Arial" (color 170 0 255)(font_size 8)))
(text "[13] - AJ27" (rect 2440 176 2502 190)(font "Arial" (color 170 0 255)(font_size 8)))
(text "[14] - AK29" (rect 2352 192 2416 206)(font "Arial" (color 170 0 255)(font_size 8)))
(text "[15] - AK28" (rect 2440 192 2504 206)(font "Arial" (color 170 0 255)(font_size 8)))
(text "[16] - AK27" (rect 2352 208 2416 222)(font "Arial" (color 170 0 255)(font_size 8)))
(text "[17] - AJ26" (rect 2440 208 2502 222)(font "Arial" (color 170 0 255)(font_size 8)))
(text "[18] - AK26" (rect 2352 224 2416 238)(font "Arial" (color 170 0 255)(font_size 8)))
(text "[19] - AH25" (rect 2440 224 2504 238)(font "Arial" (color 170 0 255)(font_size 8)))
(text "[20] - AJ25" (rect 2352 240 2414 254)(font "Arial" (color 170 0 255)(font_size 8)))
(text "[21] - AJ24" (rect 2440 240 2502 254)(font "Arial" (color 170 0 255)(font_size 8)))
(text "[22] - AK24" (rect 2352 256 2416 270)(font "Arial" (color 170 0 255)(font_size 8)))
(text "[23] - AG23" (rect 2440 256 2506 270)(font "Arial" (color 170 0 255)(font_size 8)))
(text "[24] - AK23" (rect 2352 272 2416 286)(font "Arial" (color 170 0 255)(font_size 8)))
(text "[25] - AH23" (rect 2440 272 2504 286)(font "Arial" (color 170 0 255)(font_size 8)))
(text "[26] - AK22" (rect 2352 320 2416 334)(font "Arial" (color 170 0 255)(font_size 8)))
(text "[27] - AJ22" (rect 2440 320 2502 334)(font "Arial" (color 170 0 255)(font_size 8)))
(text "[28] - AH22" (rect 2352 336 2416 350)(font "Arial" (color 170 0 255)(font_size 8)))
(text "[29] - AG22" (rect 2440 336 2506 350)(font "Arial" (color 170 0 255)(font_size 8)))
(text "[30] - AF24" (rect 2352 352 2415 366)(font "Arial" (color 170 0 255)(font_size 8)))
(text "[31] - AF23" (rect 2440 352 2503 366)(font "Arial" (color 170 0 255)(font_size 8)))
(text "[32] - AE22" (rect 2352 368 2415 382)(font "Arial" (color 170 0 255)(font_size 8)))
(text "[33] - AD21" (rect 2440 368 2504 382)(font "Arial" (color 170 0 255)(font_size 8)))
(text "[34] - AA20" (rect 2352 384 2418 398)(font "Arial" (color 170 0 255)(font_size 8)))
(text "[35] - AC22" (rect 2440 384 2504 398)(font "Arial" (color 170 0 255)(font_size 8)))
(text "LCD Power -  Pin 2" (rect 2152 136 2259 150)(font "Arial" (font_size 8)))
(text "LCD GND -  Pin 1" (rect 2592 136 2687 150)(font "Arial" (font_size 8)))
(text "LCD_Data[0] - Pin 7" (rect 2184 48 2293 62)(font "Arial" (font_size 8)))
(text "LCD_Data[1] - Pin 8" (rect 2536 48 2645 62)(font "Arial" (font_size 8)))
(text "LCD_Data[2] - Pin 9" (rect 2184 64 2293 78)(font "Arial" (font_size 8)))
(text "LCD_Data[3] - Pin 10" (rect 2536 64 2652 78)(font "Arial" (font_size 8)))
(text "LCD_Data[4] - Pin 11" (rect 2184 80 2300 94)(font "Arial" (font_size 8)))
(text "LCD_Data[5] - Pin 12" (rect 2536 80 2652 94)(font "Arial" (font_size 8)))
(text "LCD_Data[6] - Pin 13" (rect 2184 96 2300 110)(font "Arial" (font_size 8)))
(text "LCD_Data[7] - Pin 14" (rect 2536 96 2652 110)(font "Arial" (font_size 8)))
(text "LCD_RS - Pin 4" (rect 2536 160 2622 174)(font "Arial" (font_size 8)))
(text "LCD_EN - Pin 6" (rect 2536 176 2620 190)(font "Arial" (font_size 8)))
(text "LCD_RW - Pin 5" (rect 2536 192 2625 206)(font "Arial" (font_size 8)))
(text "[1] - Y17" (rect 1864 48 1913 62)(font "Arial" (color 170 0 255)(font_size 8)))
(text "[3] - Y18" (rect 1864 64 1913 78)(font "Arial" (color 170 0 255)(font_size 8)))
(text "[1] - Y17" (rect 1864 48 1913 62)(font "Arial" (color 170 0 255)(font_size 8)))
(text "[5] - AK18" (rect 1864 80 1921 94)(font "Arial" (color 170 0 255)(font_size 8)))
(text "[3] - Y18" (rect 1864 64 1913 78)(font "Arial" (color 170 0 255)(font_size 8)))
(text "[1] - Y17" (rect 1864 48 1913 62)(font "Arial" (color 170 0 255)(font_size 8)))
(text "[3] - Y18" (rect 1864 64 1913 78)(font "Arial" (color 170 0 255)(font_size 8)))
(text "[1] - Y17" (rect 1864 48 1913 62)(font "Arial" (color 170 0 255)(font_size 8)))
(text "[5] - AK18" (rect 1864 80 1921 94)(font "Arial" (color 170 0 255)(font_size 8)))
(text "[3] - Y18" (rect 1864 64 1913 78)(font "Arial" (color 170 0 255)(font_size 8)))
(text "[1] - Y17" (rect 1864 48 1913 62)(font "Arial" (color 170 0 255)(font_size 8)))
(text "[7] - AJ19" (rect 1864 96 1919 110)(font "Arial" (color 170 0 255)(font_size 8)))
(text "[5] - AK18" (rect 1864 80 1921 94)(font "Arial" (color 170 0 255)(font_size 8)))
(text "[3] - Y18" (rect 1864 64 1913 78)(font "Arial" (color 170 0 255)(font_size 8)))
(text "[1] - Y17" (rect 1864 48 1913 62)(font "Arial" (color 170 0 255)(font_size 8)))
(text "[9] - AJ16" (rect 1864 112 1919 126)(font "Arial" (color 170 0 255)(font_size 8)))
(text "[7] - AJ19" (rect 1864 96 1919 110)(font "Arial" (color 170 0 255)(font_size 8)))
(text "[5] - AK18" (rect 1864 80 1921 94)(font "Arial" (color 170 0 255)(font_size 8)))
(text "[3] - Y18" (rect 1864 64 1913 78)(font "Arial" (color 170 0 255)(font_size 8)))
(text "[1] - Y17" (rect 1864 48 1913 62)(font "Arial" (color 170 0 255)(font_size 8)))
(text "[11] - AH17" (rect 1864 160 1928 174)(font "Arial" (color 170 0 255)(font_size 8)))
(text "[9] - AJ16" (rect 1864 112 1919 126)(font "Arial" (color 170 0 255)(font_size 8)))
(text "[7] - AJ19" (rect 1864 96 1919 110)(font "Arial" (color 170 0 255)(font_size 8)))
(text "[5] - AK18" (rect 1864 80 1921 94)(font "Arial" (color 170 0 255)(font_size 8)))
(text "[3] - Y18" (rect 1864 64 1913 78)(font "Arial" (color 170 0 255)(font_size 8)))
(text "[1] - Y17" (rect 1864 48 1913 62)(font "Arial" (color 170 0 255)(font_size 8)))
(text "[13] - AE16" (rect 1864 176 1927 190)(font "Arial" (color 170 0 255)(font_size 8)))
(text "[11] - AH17" (rect 1864 160 1928 174)(font "Arial" (color 170 0 255)(font_size 8)))
(text "[9] - AJ16" (rect 1864 112 1919 126)(font "Arial" (color 170 0 255)(font_size 8)))
(text "[7] - AJ19" (rect 1864 96 1919 110)(font "Arial" (color 170 0 255)(font_size 8)))
(text "[5] - AK18" (rect 1864 80 1921 94)(font "Arial" (color 170 0 255)(font_size 8)))
(text "[3] - Y18" (rect 1864 64 1913 78)(font "Arial" (color 170 0 255)(font_size 8)))
(text "[1] - Y17" (rect 1864 48 1913 62)(font "Arial" (color 170 0 255)(font_size 8)))
(text "[17] - AA19" (rect 1864 208 1930 222)(font "Arial" (color 170 0 255)(font_size 8)))
(text "[13] - AE16" (rect 1864 176 1927 190)(font "Arial" (color 170 0 255)(font_size 8)))
(text "[11] - AH17" (rect 1864 160 1928 174)(font "Arial" (color 170 0 255)(font_size 8)))
(text "[9] - AJ16" (rect 1864 112 1919 126)(font "Arial" (color 170 0 255)(font_size 8)))
(text "[7] - AJ19" (rect 1864 96 1919 110)(font "Arial" (color 170 0 255)(font_size 8)))
(text "[5] - AK18" (rect 1864 80 1921 94)(font "Arial" (color 170 0 255)(font_size 8)))
(text "[3] - Y18" (rect 1864 64 1913 78)(font "Arial" (color 170 0 255)(font_size 8)))
(text "[1] - Y17" (rect 1864 48 1913 62)(font "Arial" (color 170 0 255)(font_size 8)))
(text "[15] - AG17" (rect 1864 192 1930 206)(font "Arial" (color 170 0 255)(font_size 8)))
(text "[17] - AA19" (rect 1864 208 1930 222)(font "Arial" (color 170 0 255)(font_size 8)))
(text "[13] - AE16" (rect 1864 176 1927 190)(font "Arial" (color 170 0 255)(font_size 8)))
(text "[11] - AH17" (rect 1864 160 1928 174)(font "Arial" (color 170 0 255)(font_size 8)))
(text "[9] - AJ16" (rect 1864 112 1919 126)(font "Arial" (color 170 0 255)(font_size 8)))
(text "[7] - AJ19" (rect 1864 96 1919 110)(font "Arial" (color 170 0 255)(font_size 8)))
(text "[5] - AK18" (rect 1864 80 1921 94)(font "Arial" (color 170 0 255)(font_size 8)))
(text "[3] - Y18" (rect 1864 64 1913 78)(font "Arial" (color 170 0 255)(font_size 8)))
(text "[1] - Y17" (rect 1864 48 1913 62)(font "Arial" (color 170 0 255)(font_size 8)))
(text "[19] - AC20" (rect 1864 224 1928 238)(font "Arial" (color 170 0 255)(font_size 8)))
(text "[15] - AG17" (rect 1864 192 1930 206)(font "Arial" (color 170 0 255)(font_size 8)))
(text "[17] - AA19" (rect 1864 208 1930 222)(font "Arial" (color 170 0 255)(font_size 8)))
(text "[13] - AE16" (rect 1864 176 1927 190)(font "Arial" (color 170 0 255)(font_size 8)))
(text "[11] - AH17" (rect 1864 160 1928 174)(font "Arial" (color 170 0 255)(font_size 8)))
(text "[9] - AJ16" (rect 1864 112 1919 126)(font "Arial" (color 170 0 255)(font_size 8)))
(text "[7] - AJ19" (rect 1864 96 1919 110)(font "Arial" (color 170 0 255)(font_size 8)))
(text "[5] - AK18" (rect 1864 80 1921 94)(font "Arial" (color 170 0 255)(font_size 8)))
(text "[3] - Y18" (rect 1864 64 1913 78)(font "Arial" (color 170 0 255)(font_size 8)))
(text "[1] - Y17" (rect 1864 48 1913 62)(font "Arial" (color 170 0 255)(font_size 8)))
(text "[21] - AJ20" (rect 1864 240 1926 254)(font "Arial" (color 170 0 255)(font_size 8)))
(text "[19] - AC20" (rect 1864 224 1928 238)(font "Arial" (color 170 0 255)(font_size 8)))
(text "[15] - AG17" (rect 1864 192 1930 206)(font "Arial" (color 170 0 255)(font_size 8)))
(text "[17] - AA19" (rect 1864 208 1930 222)(font "Arial" (color 170 0 255)(font_size 8)))
(text "[13] - AE16" (rect 1864 176 1927 190)(font "Arial" (color 170 0 255)(font_size 8)))
(text "[11] - AH17" (rect 1864 160 1928 174)(font "Arial" (color 170 0 255)(font_size 8)))
(text "[9] - AJ16" (rect 1864 112 1919 126)(font "Arial" (color 170 0 255)(font_size 8)))
(text "[7] - AJ19" (rect 1864 96 1919 110)(font "Arial" (color 170 0 255)(font_size 8)))
(text "[5] - AK18" (rect 1864 80 1921 94)(font "Arial" (color 170 0 255)(font_size 8)))
(text "[3] - Y18" (rect 1864 64 1913 78)(font "Arial" (color 170 0 255)(font_size 8)))
(text "[1] - Y17" (rect 1864 48 1913 62)(font "Arial" (color 170 0 255)(font_size 8)))
(text "[23] - AK21" (rect 1864 256 1928 270)(font "Arial" (color 170 0 255)(font_size 8)))
(text "[21] - AJ20" (rect 1864 240 1926 254)(font "Arial" (color 170 0 255)(font_size 8)))
(text "[19] - AC20" (rect 1864 224 1928 238)(font "Arial" (color 170 0 255)(font_size 8)))
(text "[15] - AG17" (rect 1864 192 1930 206)(font "Arial" (color 170 0 255)(font_size 8)))
(text "[17] - AA19" (rect 1864 208 1930 222)(font "Arial" (color 170 0 255)(font_size 8)))
(text "[13] - AE16" (rect 1864 176 1927 190)(font "Arial" (color 170 0 255)(font_size 8)))
(text "[11] - AH17" (rect 1864 160 1928 174)(font "Arial" (color 170 0 255)(font_size 8)))
(text "[9] - AJ16" (rect 1864 112 1919 126)(font "Arial" (color 170 0 255)(font_size 8)))
(text "[7] - AJ19" (rect 1864 96 1919 110)(font "Arial" (color 170 0 255)(font_size 8)))
(text "[5] - AK18" (rect 1864 80 1921 94)(font "Arial" (color 170 0 255)(font_size 8)))
(text "[3] - Y18" (rect 1864 64 1913 78)(font "Arial" (color 170 0 255)(font_size 8)))
(text "[1] - Y17" (rect 1864 48 1913 62)(font "Arial" (color 170 0 255)(font_size 8)))
(text "[25] - AD20" (rect 1864 272 1928 286)(font "Arial" (color 170 0 255)(font_size 8)))
(text "[21] - AJ20" (rect 1864 240 1926 254)(font "Arial" (color 170 0 255)(font_size 8)))
(text "[19] - AC20" (rect 1864 224 1928 238)(font "Arial" (color 170 0 255)(font_size 8)))
(text "[15] - AG17" (rect 1864 192 1930 206)(font "Arial" (color 170 0 255)(font_size 8)))
(text "[17] - AA19" (rect 1864 208 1930 222)(font "Arial" (color 170 0 255)(font_size 8)))
(text "[13] - AE16" (rect 1864 176 1927 190)(font "Arial" (color 170 0 255)(font_size 8)))
(text "[11] - AH17" (rect 1864 160 1928 174)(font "Arial" (color 170 0 255)(font_size 8)))
(text "[9] - AJ16" (rect 1864 112 1919 126)(font "Arial" (color 170 0 255)(font_size 8)))
(text "[7] - AJ19" (rect 1864 96 1919 110)(font "Arial" (color 170 0 255)(font_size 8)))
(text "[5] - AK18" (rect 1864 80 1921 94)(font "Arial" (color 170 0 255)(font_size 8)))
(text "[3] - Y18" (rect 1864 64 1913 78)(font "Arial" (color 170 0 255)(font_size 8)))
(text "[1] - Y17" (rect 1864 48 1913 62)(font "Arial" (color 170 0 255)(font_size 8)))
(text "[27] - AE19" (rect 1864 320 1927 334)(font "Arial" (color 170 0 255)(font_size 8)))
(text "[25] - AD20" (rect 1864 272 1928 286)(font "Arial" (color 170 0 255)(font_size 8)))
(text "[21] - AJ20" (rect 1864 240 1926 254)(font "Arial" (color 170 0 255)(font_size 8)))
(text "[19] - AC20" (rect 1864 224 1928 238)(font "Arial" (color 170 0 255)(font_size 8)))
(text "[15] - AG17" (rect 1864 192 1930 206)(font "Arial" (color 170 0 255)(font_size 8)))
(text "[17] - AA19" (rect 1864 208 1930 222)(font "Arial" (color 170 0 255)(font_size 8)))
(text "[13] - AE16" (rect 1864 176 1927 190)(font "Arial" (color 170 0 255)(font_size 8)))
(text "[11] - AH17" (rect 1864 160 1928 174)(font "Arial" (color 170 0 255)(font_size 8)))
(text "[9] - AJ16" (rect 1864 112 1919 126)(font "Arial" (color 170 0 255)(font_size 8)))
(text "[7] - AJ19" (rect 1864 96 1919 110)(font "Arial" (color 170 0 255)(font_size 8)))
(text "[5] - AK18" (rect 1864 80 1921 94)(font "Arial" (color 170 0 255)(font_size 8)))
(text "[3] - Y18" (rect 1864 64 1913 78)(font "Arial" (color 170 0 255)(font_size 8)))
(text "[1] - Y17" (rect 1864 48 1913 62)(font "Arial" (color 170 0 255)(font_size 8)))
(text "[29] - AF21" (rect 1864 336 1927 350)(font "Arial" (color 170 0 255)(font_size 8)))
(text "[27] - AE19" (rect 1864 320 1927 334)(font "Arial" (color 170 0 255)(font_size 8)))
(text "[21] - AJ20" (rect 1864 240 1926 254)(font "Arial" (color 170 0 255)(font_size 8)))
(text "[19] - AC20" (rect 1864 224 1928 238)(font "Arial" (color 170 0 255)(font_size 8)))
(text "[15] - AG17" (rect 1864 192 1930 206)(font "Arial" (color 170 0 255)(font_size 8)))
(text "[17] - AA19" (rect 1864 208 1930 222)(font "Arial" (color 170 0 255)(font_size 8)))
(text "[13] - AE16" (rect 1864 176 1927 190)(font "Arial" (color 170 0 255)(font_size 8)))
(text "[11] - AH17" (rect 1864 160 1928 174)(font "Arial" (color 170 0 255)(font_size 8)))
(text "[9] - AJ16" (rect 1864 112 1919 126)(font "Arial" (color 170 0 255)(font_size 8)))
(text "[7] - AJ19" (rect 1864 96 1919 110)(font "Arial" (color 170 0 255)(font_size 8)))
(text "[5] - AK18" (rect 1864 80 1921 94)(font "Arial" (color 170 0 255)(font_size 8)))
(text "[3] - Y18" (rect 1864 64 1913 78)(font "Arial" (color 170 0 255)(font_size 8)))
(text "[1] - Y17" (rect 1864 48 1913 62)(font "Arial" (color 170 0 255)(font_size 8)))
(text "[31] - AG21" (rect 1864 352 1930 366)(font "Arial" (color 170 0 255)(font_size 8)))
(text "[29] - AF21" (rect 1864 336 1927 350)(font "Arial" (color 170 0 255)(font_size 8)))
(text "[27] - AE19" (rect 1864 320 1927 334)(font "Arial" (color 170 0 255)(font_size 8)))
(text "[21] - AJ20" (rect 1864 240 1926 254)(font "Arial" (color 170 0 255)(font_size 8)))
(text "[19] - AC20" (rect 1864 224 1928 238)(font "Arial" (color 170 0 255)(font_size 8)))
(text "[15] - AG17" (rect 1864 192 1930 206)(font "Arial" (color 170 0 255)(font_size 8)))
(text "[17] - AA19" (rect 1864 208 1930 222)(font "Arial" (color 170 0 255)(font_size 8)))
(text "[13] - AE16" (rect 1864 176 1927 190)(font "Arial" (color 170 0 255)(font_size 8)))
(text "[11] - AH17" (rect 1864 160 1928 174)(font "Arial" (color 170 0 255)(font_size 8)))
(text "[9] - AJ16" (rect 1864 112 1919 126)(font "Arial" (color 170 0 255)(font_size 8)))
(text "[7] - AJ19" (rect 1864 96 1919 110)(font "Arial" (color 170 0 255)(font_size 8)))
(text "[5] - AK18" (rect 1864 80 1921 94)(font "Arial" (color 170 0 255)(font_size 8)))
(text "[3] - Y18" (rect 1864 64 1913 78)(font "Arial" (color 170 0 255)(font_size 8)))
(text "[1] - Y17" (rect 1864 48 1913 62)(font "Arial" (color 170 0 255)(font_size 8)))
(text "[33] - AG20" (rect 1864 368 1930 382)(font "Arial" (color 170 0 255)(font_size 8)))
(text "[31] - AG21" (rect 1864 352 1930 366)(font "Arial" (color 170 0 255)(font_size 8)))
(text "[29] - AF21" (rect 1864 336 1927 350)(font "Arial" (color 170 0 255)(font_size 8)))
(text "[27] - AE19" (rect 1864 320 1927 334)(font "Arial" (color 170 0 255)(font_size 8)))
(text "LCD Contrast -  Pin 3" (rect 2184 160 2302 174)(font "Arial" (font_size 8)))
(text "WiFI_TXD" (rect 2544 368 2598 382)(font "Arial" (font_size 8)))
(text "WiFI_RXD" (rect 2544 384 2599 398)(font "Arial" (font_size 8)))
(text "WiFI_TXD" (rect 1448 880 1502 894)(font "Arial" (font_size 8)))
(text "WiFI_RXD" (rect 672 960 727 974)(font "Arial" (font_size 8)))
(rectangle (rect 1736 40 1960 408))
(rectangle (rect 2320 40 2528 408))
